Datum|1 AUD|1 CAD|1 CHF|1 DKK|1 EUR|1 GBP|100 GRD|100 HUF|100 JPY|1 NOK|1 NZD|1 PLN|1 SEK|100 SIT|100 SKK|1 USD|1 XDR|1 ATS|100 BEF|1 DEM|100 ESP|1 FIM|1 FRF|1 IEP|1000 ITL|100 LUF|1 NLG|100 PTE
03.01.2000|23,363|24,622|22,458|4,849|36,100|57,807|10,937|14,183|34,950|4,474|18,631|8,632|4,216|18,152|85,164|35,822|49,111|2,623|89,490|18,458|21,697|6,072|5,503|45,838|18,644|89,490|16,381|18,007
04.01.2000|23,409|24,638|22,451|4,842|36,035|57,601|10,929|14,152|34,957|4,458|18,584|8,648|4,206|18,113|85,161|35,602|48,809|2,619|89,328|18,424|21,657|6,061|5,494|45,755|18,611|89,328|16,352|17,974
05.01.2000|23,282|24,437|22,582|4,866|36,210|57,945|10,964|14,226|34,418|4,453|18,594|8,568|4,209|18,201|85,603|35,353|48,648|2,631|89,762|18,514|21,763|6,090|5,520|45,977|18,701|89,762|16,431|18,061
06.01.2000|23,082|24,165|22,662|4,882|36,350|57,587|10,990|14,282|33,955|4,423|18,215|8,489|4,208|18,218|85,771|35,053|48,442|2,642|90,109|18,585|21,847|6,114|5,542|46,155|18,773|90,109|16,495|18,131
07.01.2000|23,005|24,117|22,605|4,871|36,260|57,647|10,956|14,241|33,495|4,423|18,135|8,515|4,195|18,179|85,519|35,044|48,428|2,635|89,886|18,539|21,793|6,098|5,528|46,041|18,727|89,886|16,454|18,086
10.01.2000|22,936|24,012|22,471|4,855|36,115|57,726|10,918|14,183|33,349|4,411|18,096|8,573|4,182|18,104|85,318|35,060|48,396|2,625|89,527|18,465|21,706|6,074|5,506|45,857|18,652|89,527|16,388|18,014
11.01.2000|23,077|24,182|22,356|4,831|35,970|57,487|10,884|14,124|33,647|4,386|18,122|8,654|4,161|18,019|84,883|35,144|48,334|2,614|89,167|18,391|21,618|6,050|5,484|45,672|18,577|89,167|16,322|17,942
12.01.2000|22,860|23,978|22,349|4,831|35,970|57,384|10,873|14,122|33,038|4,376|18,043|8,634|4,156|18,008|85,096|34,924|47,975|2,614|89,167|18,391|21,618|6,050|5,484|45,672|18,577|89,167|16,322|17,942
13.01.2000|22,968|23,947|22,377|4,844|36,030|57,502|10,890|14,143|33,026|4,375|18,093|8,573|4,154|18,031|85,183|34,879|47,911|2,618|89,316|18,422|21,654|6,060|5,493|45,749|18,608|89,316|16,350|17,972
14.01.2000|23,309|24,115|22,400|4,845|36,085|57,635|10,905|14,161|33,107|4,406|18,338|8,620|4,168|18,039|85,276|35,027|48,154|2,622|89,452|18,450|21,688|6,069|5,501|45,818|18,636|89,452|16,375|17,999
17.01.2000|23,426|24,243|22,351|4,839|36,025|57,875|10,863|14,136|33,291|4,424|18,320|8,654|4,175|18,008|85,117|35,174|48,321|2,618|89,304|18,419|21,651|6,059|5,492|45,742|18,605|89,304|16,347|17,969
18.01.2000|23,666|24,514|22,306|4,834|35,985|58,197|10,873|14,116|33,836|4,450|18,458|8,699|4,202|17,990|85,066|35,562|48,802|2,615|89,204|18,399|21,627|6,052|5,486|45,692|18,585|89,204|16,329|17,949
19.01.2000|23,632|24,638|22,301|4,833|35,975|58,291|10,874|14,116|33,893|4,428|18,433|8,767|4,198|17,982|84,993|35,674|48,956|2,614|89,180|18,394|21,621|6,051|5,484|45,679|18,580|89,180|16,325|17,944
20.01.2000|23,689|24,546|22,347|4,843|36,065|58,361|10,901|14,136|33,594|4,461|18,432|8,697|4,199|18,031|85,200|35,629|48,696|2,621|89,403|18,440|21,676|6,066|5,498|45,793|18,626|89,403|16,366|17,989
21.01.2000|23,709|24,620|22,353|4,848|36,095|58,845|10,913|14,149|33,828|4,461|18,376|8,739|4,196|18,053|85,323|35,731|48,810|2,623|89,477|18,455|21,694|6,071|5,503|45,831|18,642|89,477|16,379|18,004
24.01.2000|23,591|24,559|22,396|4,843|36,055|58,841|10,889|14,133|33,875|4,459|18,283|8,720|4,197|18,034|85,217|35,540|48,634|2,620|89,378|18,435|21,669|6,064|5,497|45,780|18,621|89,378|16,361|17,984
25.01.2000|23,409|24,782|22,279|4,824|35,930|59,057|10,843|14,083|34,008|4,463|18,161|8,717|4,188|17,977|84,854|35,698|48,975|2,611|89,068|18,371|21,594|6,043|5,477|45,622|18,556|89,068|16,304|17,922
26.01.2000|23,459|24,769|22,285|4,823|35,910|59,000|10,826|14,073|33,751|4,462|18,233|8,667|4,211|17,968|84,744|35,754|48,919|2,610|89,019|18,360|21,582|6,040|5,474|45,596|18,546|89,019|16,295|17,912
27.01.2000|23,375|24,846|22,206|4,812|35,800|58,752|10,793|14,025|33,783|4,439|18,188|8,645|4,195|17,892|84,533|35,709|48,856|2,602|88,746|18,304|21,516|6,021|5,458|45,457|18,489|88,746|16,245|17,857
28.01.2000|23,376|24,875|22,236|4,814|35,830|58,560|10,806|14,028|33,859|4,428|18,216|8,668|4,195|17,895|84,618|35,798|48,978|2,604|88,820|18,320|21,534|6,026|5,462|45,495|18,505|88,820|16,259|17,872
31.01.2000|23,521|25,254|22,166|4,802|35,740|59,001|10,773|13,999|34,612|4,434|18,001|8,719|4,193|17,843|84,361|36,270|49,445|2,597|88,597|18,274|21,480|6,011|5,449|45,380|18,458|88,597|16,218|17,827
01.02.2000|23,176|25,251|22,215|4,805|35,770|59,190|10,778|14,009|34,126|4,422|18,010|8,687|4,158|17,858|84,499|36,468|49,574|2,600|88,672|18,289|21,498|6,016|5,453|45,419|18,474|88,672|16,232|17,842
02.02.2000|23,557|25,516|22,321|4,819|35,870|59,685|10,807|14,042|34,477|4,447|18,343|8,777|4,182|17,906|84,783|37,008|50,067|2,607|88,919|18,340|21,558|6,033|5,468|45,546|18,525|88,919|16,277|17,892
03.02.2000|23,434|25,386|22,253|4,813|35,830|59,425|10,785|14,019|34,046|4,460|18,027|8,682|4,202|17,857|84,668|36,875|49,599|2,604|88,820|18,320|21,534|6,026|5,462|45,495|18,505|88,820|16,259|17,872
04.02.2000|23,377|25,552|22,264|4,820|35,880|59,067|10,802|14,044|34,063|4,471|18,185|8,733|4,229|17,876|84,816|36,872|49,542|2,608|88,944|18,345|21,564|6,035|5,470|45,558|18,530|88,944|16,282|17,897
07.02.2000|22,940|25,097|22,293|4,815|35,830|57,453|10,780|14,024|33,671|4,424|17,891|8,675|4,221|17,853|84,695|36,183|48,622|2,604|88,820|18,320|21,534|6,026|5,462|45,495|18,505|88,820|16,259|17,872
08.02.2000|23,199|25,261|22,206|4,791|35,670|58,117|10,722|13,958|33,528|4,418|17,980|8,709|4,206|17,761|84,267|36,363|49,012|2,592|88,424|18,238|21,438|5,999|5,438|45,292|18,422|88,424|16,186|17,792
09.02.2000|23,112|25,073|22,202|4,797|35,715|58,225|10,728|13,969|33,255|4,425|17,928|8,716|4,221|17,783|84,423|36,303|48,812|2,596|88,535|18,261|21,465|6,007|5,445|45,349|18,445|88,535|16,207|17,815
10.02.2000|22,895|24,897|22,152|4,787|35,630|58,012|10,710|13,939|33,089|4,411|17,769|8,708|4,197|17,729|84,218|36,021|48,498|2,589|88,324|18,217|21,414|5,993|5,432|45,241|18,401|88,324|16,168|17,772
11.02.2000|22,830|24,878|22,237|4,796|35,710|58,147|10,730|13,965|33,186|4,419|17,771|8,679|4,209|17,762|84,401|36,083|48,718|2,595|88,523|18,258|21,462|6,006|5,444|45,342|18,443|88,523|16,204|17,812
14.02.2000|22,816|25,004|22,207|4,789|35,655|58,056|10,714|13,941|33,076|4,434|17,837|8,754|4,224|17,727|84,281|36,248|48,926|2,591|88,386|18,230|21,429|5,997|5,436|45,273|18,414|88,386|16,180|17,785
15.02.2000|22,786|24,826|22,225|4,792|35,685|57,352|10,714|13,948|33,320|4,413|17,678|8,704|4,206|17,729|84,309|36,051|48,411|2,593|88,461|18,245|21,447|6,002|5,440|45,311|18,430|88,461|16,193|17,800
16.02.2000|22,839|24,976|22,208|4,792|35,675|57,739|10,707|13,944|33,305|4,427|17,738|8,762|4,210|17,737|84,308|36,397|49,061|2,593|88,436|18,240|21,441|6,000|5,439|45,298|18,425|88,436|16,189|17,795
17.02.2000|22,961|24,965|22,219|4,788|35,660|58,159|10,701|13,933|33,330|4,400|17,833|8,783|4,175|17,719|84,265|36,356|48,844|2,592|88,399|18,233|21,432|5,998|5,436|45,279|18,417|88,399|16,182|17,787
18.02.2000|22,843|24,787|22,307|4,805|35,775|58,058|10,721|13,968|32,734|4,393|17,715|8,769|4,184|17,768|84,539|36,013|48,425|2,600|88,684|18,291|21,501|6,017|5,454|45,425|18,476|88,684|16,234|17,844
21.02.2000|22,902|25,033|22,289|4,803|35,770|58,307|10,729|13,970|32,748|4,394|17,855|8,862|4,193|17,769|84,564|36,280|48,883|2,600|88,672|18,289|21,498|6,016|5,453|45,419|18,474|88,672|16,232|17,842
22.02.2000|22,694|24,917|22,273|4,794|35,700|57,870|10,696|13,902|32,521|4,365|17,727|8,812|4,164|17,735|84,422|36,152|48,547|2,594|88,498|18,253|21,456|6,004|5,442|45,330|18,438|88,498|16,200|17,807
23.02.2000|22,411|24,554|22,220|4,794|35,705|57,487|10,705|13,885|32,145|4,357|17,495|8,745|4,152|17,708|84,623|35,737|47,990|2,595|88,510|18,256|21,459|6,005|5,443|45,336|18,440|88,510|16,202|17,810
24.02.2000|22,092|24,262|22,167|4,792|35,690|57,167|10,691|13,857|32,077|4,361|17,334|8,666|4,156|17,699|84,614|35,532|47,715|2,594|88,473|18,248|21,450|6,003|5,441|45,317|18,432|88,473|16,195|17,802
25.02.2000|22,119|24,440|22,127|4,786|35,640|57,202|10,673|13,881|32,122|4,367|17,395|8,763|4,161|17,645|84,485|35,719|48,202|2,590|88,349|18,222|21,420|5,994|5,433|45,253|18,407|88,349|16,173|17,777
28.02.2000|22,310|24,745|22,102|4,772|35,545|57,428|10,637|13,837|32,433|4,370|17,610|8,714|4,167|17,601|84,490|35,989|48,413|2,583|88,114|18,174|21,363|5,978|5,419|45,133|18,357|88,114|16,130|17,730
29.02.2000|22,489|25,272|22,088|4,764|35,480|58,237|10,621|13,823|33,565|4,396|17,762|8,778|4,207|17,554|84,495|36,672|49,138|2,578|87,953|18,141|21,324|5,967|5,409|45,050|18,324|87,953|16,100|17,697
01.03.2000|22,493|25,205|22,191|4,788|35,650|58,386|10,679|13,882|33,283|4,412|17,782|8,801|4,226|17,630|85,139|36,604|49,013|2,591|88,374|18,228|21,426|5,996|5,435|45,266|18,412|88,374|16,177|17,782
02.03.2000|22,371|25,407|22,214|4,793|35,690|58,257|10,695|13,906|33,757|4,410|17,868|8,863|4,232|17,655|85,179|36,837|49,336|2,594|88,473|18,248|21,450|6,003|5,441|45,317|18,432|88,473|16,195|17,802
03.03.2000|22,449|25,393|22,210|4,793|35,700|58,166|10,695|13,916|34,340|4,415|18,025|8,903|4,228|17,644|85,338|36,742|49,203|2,594|88,498|18,253|21,456|6,004|5,442|45,330|18,438|88,498|16,200|17,807
06.03.2000|22,433|25,427|22,170|4,784|35,620|58,300|10,671|13,888|34,370|4,408|18,020|8,955|4,204|17,598|85,120|36,960|49,684|2,589|88,300|18,212|21,408|5,991|5,430|45,228|18,396|88,300|16,164|17,767
07.03.2000|22,271|25,322|22,111|4,770|35,530|58,147|10,653|13,846|34,393|4,397|17,948|8,967|4,204|17,552|85,152|36,790|49,300|2,582|88,077|18,166|21,354|5,976|5,417|45,114|18,350|88,077|16,123|17,722
08.03.2000|22,387|25,509|22,119|4,776|35,575|58,274|10,666|13,861|34,437|4,397|17,910|8,969|4,211|17,565|85,439|37,065|49,690|2,585|88,188|18,189|21,381|5,983|5,423|45,171|18,373|88,188|16,143|17,745
09.03.2000|22,443|25,462|22,106|4,771|35,525|58,498|10,647|13,843|34,639|4,400|17,953|8,975|4,213|17,545|85,555|37,081|49,610|2,582|88,064|18,164|21,351|5,975|5,416|45,107|18,347|88,064|16,121|17,720
10.03.2000|22,659|25,341|22,129|4,771|35,545|58,381|10,652|13,846|34,665|4,376|18,143|8,970|4,205|17,549|85,558|36,939|49,428|2,583|88,114|18,174|21,363|5,978|5,419|45,133|18,357|88,114|16,130|17,730
13.03.2000|22,624|25,253|22,132|4,773|35,555|58,178|10,657|13,833|34,567|4,391|18,195|8,988|4,215|17,557|85,472|36,761|49,338|2,584|88,139|18,179|21,369|5,980|5,420|45,146|18,363|88,139|16,134|17,735
14.03.2000|22,461|25,123|22,085|4,773|35,560|57,904|10,659|13,818|34,734|4,383|17,996|8,932|4,231|17,557|85,461|36,641|49,166|2,584|88,151|18,182|21,372|5,981|5,421|45,152|18,365|88,151|16,136|17,737
15.03.2000|22,838|25,245|22,059|4,771|35,555|57,976|10,657|13,791|35,218|4,379|18,179|8,989|4,237|17,538|85,428|36,892|49,722|2,584|88,139|18,179|21,369|5,980|5,420|45,146|18,363|88,139|16,134|17,735
16.03.2000|22,576|25,151|22,074|4,775|35,575|57,893|10,659|13,820|34,833|4,365|17,986|9,018|4,225|17,550|85,599|36,844|49,547|2,585|88,188|18,189|21,381|5,983|5,423|45,171|18,373|88,188|16,143|17,745
17.03.2000|22,511|25,031|22,053|4,775|35,550|57,669|10,655|13,834|34,893|4,354|17,913|9,011|4,215|17,540|85,472|36,702|49,348|2,584|88,126|18,176|21,366|5,979|5,420|45,139|18,360|88,126|16,132|17,732
20.03.2000|22,419|24,978|22,055|4,777|35,570|57,941|10,661|13,834|34,730|4,366|17,920|9,006|4,230|17,552|85,491|36,786|49,523|2,585|88,176|18,187|21,378|5,982|5,423|45,165|18,370|88,176|16,141|17,742
21.03.2000|22,218|24,921|22,041|4,774|35,550|57,402|10,647|13,829|34,241|4,349|17,709|8,990|4,223|17,533|85,366|36,612|49,236|2,584|88,126|18,176|21,366|5,979|5,420|45,139|18,360|88,126|16,132|17,732
22.03.2000|22,337|24,891|22,072|4,773|35,580|57,396|10,656|13,837|34,334|4,353|17,864|9,058|4,236|17,542|85,375|36,592|49,122|2,586|88,201|18,192|21,384|5,984|5,424|45,177|18,376|88,201|16,146|17,747
23.03.2000|22,447|25,174|22,081|4,775|35,575|57,955|10,652|13,832|34,574|4,365|18,014|9,118|4,250|17,524|85,383|36,986|49,706|2,585|88,188|18,189|21,381|5,983|5,423|45,171|18,373|88,188|16,143|17,745
24.03.2000|22,297|25,135|22,106|4,774|35,550|58,228|10,643|13,823|34,360|4,372|17,959|9,086|4,246|17,522|85,474|36,925|49,428|2,584|88,126|18,176|21,366|5,979|5,420|45,139|18,360|88,126|16,132|17,732
27.03.2000|22,282|25,014|22,300|4,787|35,650|58,388|10,663|13,851|34,325|4,381|17,923|9,097|4,254|17,563|85,589|36,739|49,204|2,591|88,374|18,228|21,426|5,996|5,435|45,266|18,412|88,374|16,177|17,782
28.03.2000|22,428|25,022|22,468|4,792|35,700|58,452|10,677|13,868|34,149|4,394|18,155|9,066|4,281|17,570|85,725|36,567|48,973|2,594|88,498|18,253|21,456|6,004|5,442|45,330|18,438|88,498|16,200|17,807
29.03.2000|22,677|25,362|22,441|4,790|35,675|58,607|10,668|13,854|34,782|4,391|18,582|9,121|4,277|17,564|85,885|36,946|49,759|2,593|88,436|18,240|21,441|6,000|5,439|45,298|18,425|88,436|16,189|17,795
30.03.2000|22,735|25,545|22,379|4,776|35,570|58,950|10,638|13,799|35,158|4,414|18,609|9,114|4,326|17,495|85,659|37,155|49,938|2,585|88,176|18,187|21,378|5,982|5,423|45,165|18,370|88,176|16,141|17,742
31.03.2000|22,707|25,539|22,375|4,784|35,625|59,319|10,655|13,807|35,398|4,410|18,578|9,093|4,305|17,524|85,815|37,249|50,035|2,589|88,312|18,215|21,411|5,992|5,431|45,234|18,399|88,312|16,166|17,770
03.04.2000|22,886|26,033|22,748|4,862|36,205|60,445|10,817|14,016|36,049|4,471|18,747|9,139|4,365|17,805|86,805|37,865|50,901|2,631|89,750|18,511|21,760|6,089|5,519|45,971|18,698|89,750|16,429|18,059
04.04.2000|23,101|26,239|22,826|4,868|36,250|60,479|10,830|14,023|36,267|4,471|18,974|9,202|4,380|17,826|86,945|38,070|51,275|2,634|89,861|18,534|21,787|6,097|5,526|46,028|18,722|89,861|16,450|18,081
05.04.2000|22,840|26,172|22,908|4,862|36,215|60,660|10,850|13,963|36,071|4,459|18,915|9,051|4,366|17,801|87,044|37,975|51,059|2,632|89,775|18,516|21,766|6,091|5,521|45,984|18,703|89,775|16,434|18,064
06.04.2000|22,726|25,861|23,053|4,868|36,270|60,000|10,828|14,018|35,733|4,450|18,856|8,977|4,359|17,828|87,183|37,628|50,564|2,636|89,911|18,545|21,799|6,100|5,529|46,053|18,732|89,911|16,459|18,091
07.04.2000|22,690|25,934|23,045|4,869|36,285|59,704|10,833|13,999|35,961|4,460|18,895|8,967|4,370|17,824|87,107|37,648|50,745|2,637|89,948|18,552|21,808|6,103|5,532|46,072|18,740|89,948|16,465|18,099
10.04.2000|22,598|26,002|23,107|4,866|36,250|59,868|10,825|14,015|36,001|4,465|18,788|9,055|4,385|17,803|87,153|37,792|50,891|2,634|89,861|18,534|21,787|6,097|5,526|46,028|18,722|89,861|16,450|18,081
11.04.2000|22,644|25,956|23,034|4,863|36,230|59,869|10,809|13,992|35,569|4,451|18,814|9,132|4,370|17,791|87,192|37,844|50,856|2,633|89,812|18,524|21,775|6,093|5,523|46,003|18,711|89,812|16,440|18,071
12.04.2000|22,487|25,824|23,094|4,880|36,340|59,910|10,887|14,062|35,312|4,440|18,777|9,095|4,390|17,828|87,554|37,758|50,610|2,641|90,085|18,580|21,841|6,112|5,540|46,142|18,768|90,085|16,490|18,126
13.04.2000|22,568|25,907|23,084|4,884|36,390|60,208|10,868|14,094|35,999|4,452|18,909|9,275|4,395|17,831|87,624|37,977|50,925|2,645|90,208|18,606|21,871|6,120|5,548|46,206|18,794|90,208|16,513|18,151
14.04.2000|22,806|26,059|23,150|4,897|36,490|60,580|10,890|14,137|36,022|4,472|19,012|9,152|4,399|17,823|87,859|38,112|51,185|2,652|90,456|18,657|21,931|6,137|5,563|46,333|18,846|90,456|16,558|18,201
17.04.2000|22,774|25,933|23,160|4,892|36,445|60,430|10,884|14,135|36,019|4,472|18,957|9,121|4,387|17,841|87,713|38,138|51,197|2,649|90,345|18,634|21,904|6,130|5,556|46,276|18,822|90,345|16,538|18,179
18.04.2000|22,678|25,703|23,277|4,900|36,480|60,395|10,892|14,110|36,797|4,450|18,900|8,892|4,384|17,873|87,809|38,002|50,967|2,651|90,432|18,652|21,925|6,135|5,561|46,320|18,840|90,432|16,554|18,196
19.04.2000|22,790|25,820|23,171|4,891|36,425|60,592|10,865|14,091|36,795|4,452|18,963|8,985|4,386|17,846|87,675|38,366|51,736|2,647|90,295|18,624|21,892|6,126|5,553|46,250|18,812|90,295|16,529|18,169
20.04.2000|22,904|25,952|23,097|4,876|36,335|60,661|10,834|14,051|36,686|4,448|19,116|9,006|4,398|17,801|87,464|38,381|51,563|2,641|90,072|18,578|21,838|6,111|5,539|46,136|18,765|90,072|16,488|18,124
21.04.2000|22,978|26,175|23,071|4,867|36,270|60,940|10,817|14,054|36,850|4,440|19,188|9,008|4,408|17,780|87,331|38,595|51,756|2,636|89,911|18,545|21,799|6,100|5,529|46,053|18,732|89,911|16,459|18,091
25.04.2000|22,951|26,265|23,089|4,870|36,290|61,172|10,815|14,058|36,639|4,459|19,117|9,015|4,409|17,783|87,398|38,703|51,790|2,637|89,961|18,555|21,811|6,104|5,532|46,079|18,742|89,961|16,468|18,101
26.04.2000|23,038|26,232|23,074|4,864|36,255|61,075|10,805|14,050|36,723|4,439|19,197|9,017|4,399|17,768|87,222|38,715|51,728|2,635|89,874|18,537|21,790|6,098|5,527|46,034|18,724|89,874|16,452|18,084
27.04.2000|23,208|26,819|23,035|4,864|36,230|62,133|10,775|14,040|37,172|4,443|19,175|9,161|4,430|17,751|87,238|39,378|52,487|2,633|89,812|18,524|21,775|6,093|5,523|46,003|18,711|89,812|16,440|18,071
28.04.2000|23,186|26,653|23,023|4,857|36,240|61,962|10,782|14,031|37,019|4,435|19,164|9,141|4,425|17,761|87,217|39,342|52,214|2,634|89,837|18,529|21,781|6,095|5,525|46,015|18,716|89,837|16,445|18,076
02.05.2000|23,401|27,022|23,079|4,862|36,245|62,545|10,783|14,036|37,402|4,451|19,462|8,977|4,457|17,760|87,247|39,906|52,974|2,634|89,849|18,532|21,784|6,096|5,526|46,022|18,719|89,849|16,447|18,079
03.05.2000|23,358|26,970|23,273|4,875|36,340|62,120|10,805|14,065|36,724|4,460|19,400|8,958|4,464|17,761|87,387|39,864|52,471|2,641|90,085|18,580|21,841|6,112|5,540|46,142|18,768|90,085|16,490|18,126
04.05.2000|23,949|27,161|23,374|4,870|36,310|63,051|10,803|14,056|37,133|4,487|19,868|9,001|4,487|17,778|87,203|40,369|53,161|2,639|90,010|18,565|21,823|6,107|5,535|46,104|18,753|90,010|16,477|18,111
05.05.2000|24,054|27,363|23,577|4,885|36,420|63,688|10,837|14,097|37,328|4,500|19,975|8,985|4,496|17,819|86,790|40,866|53,592|2,647|90,283|18,621|21,889|6,125|5,552|46,244|18,809|90,283|16,527|18,166
09.05.2000|24,253|27,330|23,627|4,918|36,650|62,756|10,897|14,184|37,931|4,511|20,050|8,772|4,512|17,929|86,469|40,861|53,497|2,663|90,853|18,739|22,027|6,164|5,587|46,536|18,928|90,853|16,631|18,281
10.05.2000|23,849|27,442|23,790|4,942|36,840|62,880|10,959|14,256|37,504|4,519|19,697|9,081|4,516|17,998|86,368|40,949|53,535|2,677|91,324|18,836|22,141|6,196|5,616|46,777|19,026|91,324|16,717|18,376
11.05.2000|23,717|27,243|23,737|4,957|36,950|61,928|10,984|14,299|37,120|4,515|19,465|9,229|4,496|18,043|85,811|40,611|53,090|2,685|91,597|18,892|22,207|6,215|5,633|46,917|19,083|91,597|16,767|18,431
12.05.2000|23,574|27,294|23,815|4,969|37,040|61,386|11,019|14,333|37,176|4,504|19,372|9,085|4,490|18,088|86,099|40,836|53,596|2,692|91,820|18,938|22,261|6,230|5,647|47,031|19,130|91,820|16,808|18,475
15.05.2000|23,630|27,437|23,683|4,943|36,855|61,735|10,957|14,253|37,680|4,494|19,464|9,147|4,475|17,989|85,941|40,843|53,504|2,678|91,361|18,844|22,150|6,199|5,619|46,796|19,034|91,361|16,724|18,383
16.05.2000|23,146|27,080|23,679|4,940|36,850|60,952|10,954|14,224|36,888|4,488|19,115|9,072|4,458|17,980|85,683|40,271|52,768|2,678|91,349|18,841|22,147|6,198|5,618|46,790|19,031|91,349|16,722|18,381
17.05.2000|23,378|27,245|23,693|4,933|36,800|60,794|10,938|14,212|37,205|4,501|19,185|9,233|4,472|17,961|85,598|40,531|53,164|2,674|91,225|18,816|22,117|6,189|5,610|46,726|19,006|91,225|16,699|18,356
18.05.2000|23,305|27,416|23,635|4,908|36,610|61,023|10,877|14,144|37,271|4,487|18,990|9,105|4,469|17,864|85,353|40,825|53,414|2,661|90,754|18,718|22,003|6,157|5,581|46,485|18,907|90,754|16,613|18,261
19.05.2000|23,400|27,440|23,675|4,932|36,790|61,064|10,928|14,208|37,669|4,510|18,700|9,064|4,502|17,953|85,613|41,157|53,555|2,674|91,200|18,810|22,111|6,188|5,609|46,714|19,000|91,200|16,695|18,351
22.05.2000|23,481|27,280|23,575|4,904|36,580|60,913|10,860|14,116|37,990|4,478|18,688|9,072|4,467|17,834|85,126|40,961|53,268|2,658|90,679|18,703|21,985|6,152|5,577|46,447|18,892|90,679|16,599|18,246
23.05.2000|23,168|27,049|23,433|4,879|36,400|60,098|10,804|14,017|37,834|4,442|18,495|9,010|4,402|17,741|84,849|40,458|52,669|2,645|90,233|18,611|21,877|6,122|5,549|46,218|18,799|90,233|16,518|18,156
24.05.2000|22,986|26,563|23,261|4,882|36,405|59,001|10,809|14,024|37,364|4,394|18,375|8,845|4,374|17,748|84,699|39,802|52,093|2,646|90,246|18,614|21,880|6,123|5,550|46,225|18,802|90,246|16,520|18,159
25.05.2000|22,844|26,526|23,268|4,880|36,390|58,845|10,799|14,004|37,337|4,397|18,040|8,882|4,367|17,729|84,597|39,969|52,450|2,645|90,208|18,606|21,871|6,120|5,548|46,206|18,794|90,208|16,513|18,151
26.05.2000|22,885|26,636|23,297|4,872|36,320|59,440|10,798|13,981|37,382|4,405|18,242|8,942|4,373|17,698|84,525|40,255|52,765|2,639|90,035|18,570|21,829|6,109|5,537|46,117|18,758|90,035|16,481|18,116
29.05.2000|22,596|26,307|23,166|4,860|36,235|58,368|10,752|13,939|36,876|4,378|17,984|8,760|4,340|17,651|84,359|39,573|51,752|2,633|89,824|18,527|21,778|6,094|5,524|46,009|18,714|89,824|16,443|18,074
30.05.2000|22,431|26,058|23,170|4,869|36,320|58,307|10,774|13,981|36,529|4,363|18,001|8,701|4,309|17,684|84,540|39,146|51,369|2,639|90,035|18,570|21,829|6,109|5,537|46,117|18,758|90,035|16,481|18,116
31.05.2000|22,421|25,764|23,108|4,868|36,315|57,976|10,771|13,987|36,237|4,356|17,864|8,700|4,316|17,685|84,565|38,654|50,723|2,639|90,023|18,568|21,826|6,108|5,536|46,111|18,755|90,023|16,479|18,114
01.06.2000|22,229|25,771|23,005|4,845|36,150|58,005|10,728|13,942|36,121|4,346|17,772|8,827|4,321|17,584|84,460|38,756|51,341|2,627|89,614|18,483|21,727|6,080|5,511|45,901|18,670|89,614|16,404|18,032
02.06.2000|22,139|25,846|22,927|4,837|36,100|57,784|10,713|13,916|35,514|4,343|17,701|8,825|4,311|17,529|84,230|38,653|51,023|2,623|89,490|18,458|21,697|6,072|5,503|45,838|18,644|89,490|16,381|18,007
05.06.2000|22,075|25,898|22,961|4,838|36,110|57,805|10,708|13,931|35,524|4,351|17,673|8,820|4,325|17,525|84,286|38,596|50,858|2,624|89,514|18,463|21,703|6,073|5,505|45,850|18,649|89,514|16,386|18,012
06.06.2000|22,244|25,821|22,894|4,825|36,020|57,544|10,694|13,896|35,339|4,347|17,942|8,849|4,319|17,477|84,252|38,122|50,275|2,618|89,291|18,417|21,648|6,058|5,491|45,736|18,603|89,291|16,345|17,967
07.06.2000|22,086|25,713|22,850|4,821|35,985|57,522|10,682|13,872|35,456|4,341|17,804|8,681|4,322|17,437|84,503|37,965|50,324|2,615|89,204|18,399|21,627|6,052|5,486|45,692|18,585|89,204|16,329|17,949
08.06.2000|22,202|25,576|23,014|4,846|36,120|57,536|10,730|13,916|35,691|4,370|17,847|8,712|4,343|17,514|85,247|37,727|50,110|2,625|89,539|18,468|21,709|6,075|5,506|45,863|18,654|89,539|16,391|18,017
09.06.2000|22,271|25,535|23,147|4,857|36,240|57,352|10,769|13,965|35,710|4,375|17,771|8,596|4,355|17,548|85,582|37,783|50,493|2,634|89,837|18,529|21,781|6,095|5,525|46,015|18,716|89,837|16,445|18,076
12.06.2000|22,146|25,572|23,020|4,833|36,060|57,017|10,711|13,890|35,405|4,341|17,650|8,541|4,317|17,445|85,257|37,757|50,431|2,621|89,390|18,437|21,672|6,065|5,497|45,787|18,623|89,390|16,363|17,987
13.06.2000|22,292|25,627|23,046|4,823|36,020|56,950|10,708|13,869|35,427|4,333|17,771|8,587|4,330|17,308|85,741|37,767|50,266|2,618|89,291|18,417|21,648|6,058|5,491|45,736|18,603|89,291|16,345|17,967
14.06.2000|22,372|25,549|23,084|4,837|36,085|57,025|10,728|13,891|35,357|4,354|17,797|8,566|4,346|17,458|86,318|37,693|52,668|2,622|89,452|18,450|21,688|6,069|5,501|45,818|18,636|89,452|16,375|17,999
15.06.2000|22,523|25,440|23,036|4,825|36,000|56,283|10,706|13,855|35,022|4,347|17,779|8,504|4,362|17,392|86,022|37,354|49,803|2,616|89,242|18,407|21,636|6,055|5,488|45,711|18,592|89,242|16,336|17,957
16.06.2000|22,703|25,809|23,069|4,833|36,065|57,104|10,714|13,881|35,649|4,383|17,745|8,606|4,377|17,426|85,974|37,929|50,587|2,621|89,403|18,440|21,676|6,066|5,498|45,793|18,626|89,403|16,366|17,989
19.06.2000|23,003|25,647|23,177|4,849|36,170|57,253|10,741|13,925|35,629|4,393|18,020|8,579|4,377|17,476|85,769|37,837|50,384|2,629|89,663|18,493|21,739|6,083|5,514|45,926|18,680|89,663|16,413|18,042
20.06.2000|22,530|25,485|23,065|4,836|36,035|56,551|10,704|13,867|35,323|4,353|17,802|8,490|4,337|17,299|84,900|37,394|49,877|2,619|89,328|18,424|21,657|6,061|5,494|45,755|18,611|89,328|16,352|17,974
21.06.2000|22,766|25,640|23,117|4,832|36,030|56,898|10,706|13,871|35,612|4,371|17,924|8,567|4,360|17,405|85,337|37,627|50,329|2,618|89,316|18,422|21,654|6,060|5,493|45,749|18,608|89,316|16,350|17,972
22.06.2000|22,738|25,709|23,198|4,832|36,020|57,285|10,698|13,856|35,904|4,381|17,962|8,583|4,375|17,394|85,452|37,834|50,449|2,618|89,291|18,417|21,648|6,058|5,491|45,736|18,603|89,291|16,345|17,967
23.06.2000|22,872|25,889|23,221|4,821|35,950|57,393|10,685|13,834|36,257|4,379|18,078|8,667|4,355|17,363|85,445|38,168|50,824|2,613|89,118|18,381|21,606|6,046|5,481|45,647|18,567|89,118|16,313|17,932
26.06.2000|22,822|25,961|23,223|4,824|35,970|57,597|10,690|13,840|36,759|4,397|18,014|8,651|4,344|17,370|85,399|38,339|50,920|2,614|89,167|18,391|21,618|6,050|5,484|45,672|18,577|89,167|16,322|17,942
27.06.2000|22,815|25,849|23,151|4,807|35,850|57,774|10,652|13,799|36,636|4,380|18,020|8,618|4,324|17,309|84,355|38,484|51,209|2,605|88,870|18,330|21,546|6,030|5,465|45,520|18,515|88,870|16,268|17,882
28.06.2000|22,931|25,699|23,147|4,807|35,845|57,101|10,651|13,790|36,041|4,372|17,958|8,616|4,281|17,298|83,446|38,107|50,503|2,605|88,857|18,327|21,543|6,029|5,465|45,514|18,512|88,857|16,266|17,879
29.06.2000|22,753|25,591|23,058|4,788|35,705|56,990|10,607|13,726|35,878|4,353|17,776|8,595|4,255|17,224|82,833|37,881|50,290|2,595|88,510|18,256|21,459|6,005|5,443|45,336|18,440|88,510|16,202|17,810
30.06.2000|22,704|25,540|23,049|4,803|35,845|57,280|10,655|13,782|36,082|4,382|17,646|8,597|4,266|17,170|83,365|37,761|50,184|2,605|88,857|18,327|21,543|6,029|5,465|45,514|18,512|88,857|16,266|17,879
03.07.2000|22,402|25,105|22,873|4,777|35,650|56,248|10,586|13,689|35,282|4,352|17,487|8,475|4,226|17,186|83,216|37,203|49,721|2,591|88,374|18,228|21,426|5,996|5,435|45,266|18,412|88,374|16,177|17,782
04.07.2000|22,480|25,342|22,946|4,777|35,665|56,806|10,592|13,716|35,347|4,371|17,589|8,620|4,254|17,195|83,909|37,538|50,199|2,592|88,411|18,235|21,435|5,998|5,437|45,285|18,419|88,411|16,184|17,790
07.07.2000|22,597|25,449|23,008|4,788|35,720|57,022|10,611|13,739|35,479|4,368|17,548|8,750|4,264|17,234|84,087|37,709|50,428|2,596|88,548|18,263|21,468|6,008|5,445|45,355|18,448|88,548|16,209|17,817
10.07.2000|22,122|25,262|23,055|4,781|35,655|56,562|10,590|13,712|34,847|4,361|17,239|8,677|4,227|17,184|84,130|37,504|49,943|2,591|88,386|18,230|21,429|5,997|5,436|45,273|18,414|88,386|16,180|17,785
11.07.2000|22,250|25,274|23,046|4,777|35,630|56,866|10,584|13,694|35,025|4,370|17,343|8,707|4,220|17,161|83,967|37,454|49,739|2,589|88,324|18,217|21,414|5,993|5,432|45,241|18,401|88,324|16,168|17,772
12.07.2000|22,013|25,211|22,894|4,765|35,540|56,339|10,555|13,653|34,905|4,350|17,187|8,728|4,208|17,086|83,718|37,238|49,537|2,583|88,101|18,171|21,360|5,977|5,418|45,126|18,355|88,101|16,127|17,727
13.07.2000|21,982|25,203|22,838|4,750|35,455|56,473|10,528|13,626|34,648|4,347|17,159|8,707|4,220|17,040|83,469|37,290|49,656|2,577|87,891|18,128|21,309|5,963|5,405|45,019|18,311|87,891|16,089|17,685
14.07.2000|22,438|25,657|22,927|4,778|35,655|57,125|10,585|13,703|35,376|4,379|17,572|8,790|4,268|17,141|83,614|38,014|50,466|2,591|88,386|18,230|21,429|5,997|5,436|45,273|18,414|88,386|16,180|17,785
17.07.2000|22,143|25,496|22,890|4,753|35,460|56,833|10,530|13,628|35,076|4,345|17,422|8,735|4,238|17,041|82,842|37,854|50,066|2,577|87,903|18,130|21,312|5,964|5,406|45,025|18,314|87,903|16,091|17,687
18.07.2000|22,162|25,454|22,928|4,757|35,480|56,585|10,542|13,645|34,932|4,347|17,425|8,736|4,248|16,998|83,462|37,803|49,904|2,578|87,953|18,141|21,324|5,967|5,409|45,050|18,324|87,953|16,100|17,697
19.07.2000|22,274|25,735|23,021|4,784|35,680|56,984|10,599|13,714|35,329|4,357|17,482|8,846|4,255|17,162|83,953|38,107|50,340|2,593|88,448|18,243|21,444|6,001|5,439|45,304|18,427|88,448|16,191|17,797
20.07.2000|22,443|26,171|23,035|4,780|35,635|57,809|10,588|13,694|35,754|4,358|17,603|8,904|4,242|17,168|83,852|38,625|51,013|2,590|88,337|18,220|21,417|5,993|5,433|45,247|18,404|88,337|16,170|17,775
21.07.2000|22,395|26,264|23,074|4,792|35,715|57,954|10,608|13,724|35,843|4,364|17,708|8,905|4,251|17,193|84,237|38,779|50,983|2,596|88,535|18,261|21,465|6,007|5,445|45,349|18,445|88,535|16,207|17,815
24.07.2000|22,432|25,905|23,000|4,783|35,670|57,848|10,588|13,702|35,139|4,355|17,767|8,861|4,246|17,161|83,988|38,140|50,146|2,592|88,424|18,238|21,438|5,999|5,438|45,292|18,422|88,424|16,186|17,792
25.07.2000|22,369|25,900|22,880|4,773|35,590|57,888|10,557|13,671|35,008|4,343|17,623|8,855|4,226|17,121|83,720|38,091|50,303|2,586|88,225|18,197|21,390|5,986|5,426|45,190|18,381|88,225|16,150|17,752
26.07.2000|22,132|25,897|22,947|4,784|35,665|57,556|10,571|13,699|34,874|4,367|17,479|8,825|4,261|17,148|83,941|37,962|50,115|2,592|88,411|18,235|21,435|5,998|5,437|45,285|18,419|88,411|16,184|17,790
27.07.2000|22,400|25,827|22,978|4,784|35,660|57,576|10,575|13,707|34,772|4,354|17,499|8,827|4,245|17,170|83,924|37,898|50,113|2,592|88,399|18,233|21,432|5,998|5,436|45,279|18,417|88,399|16,182|17,787
28.07.2000|22,449|25,897|22,957|4,785|35,675|57,569|10,581|13,698|34,896|4,353|17,517|8,839|4,235|17,126|83,886|37,968|50,186|2,593|88,436|18,240|21,441|6,000|5,439|45,298|18,425|88,436|16,189|17,795
31.07.2000|22,600|26,035|22,966|4,771|35,565|57,912|10,542|13,655|35,164|4,341|17,603|8,847|4,200|17,074|83,222|38,380|50,717|2,585|88,163|18,184|21,375|5,982|5,422|45,158|18,368|88,163|16,139|17,740
01.08.2000|22,142|25,844|22,840|4,742|35,360|57,326|10,483|13,576|34,975|4,307|17,352|8,816|4,163|16,971|83,357|38,241|50,339|2,570|87,655|18,079|21,252|5,947|5,391|44,898|18,262|87,655|16,046|17,637
02.08.2000|22,158|25,716|22,914|4,752|35,440|57,346|10,508|13,607|34,848|4,323|17,419|8,775|4,173|16,997|83,556|38,237|50,219|2,576|87,853|18,120|21,300|5,961|5,403|45,000|18,303|87,853|16,082|17,677
03.08.2000|22,452|25,994|22,947|4,750|35,420|57,600|10,507|13,599|35,436|4,335|17,474|8,827|4,183|16,995|83,459|38,578|50,662|2,574|87,804|18,110|21,288|5,957|5,400|44,974|18,293|87,804|16,073|17,667
04.08.2000|22,713|26,245|22,889|4,737|35,350|57,997|10,483|13,561|35,776|4,323|17,651|8,872|4,178|16,952|83,458|38,840|50,863|2,569|87,630|18,074|21,246|5,945|5,389|44,885|18,257|87,630|16,041|17,633
07.08.2000|22,790|26,304|22,879|4,740|35,335|58,449|10,482|13,559|36,072|4,354|17,785|8,868|4,211|16,947|83,242|39,057|51,045|2,568|87,593|18,066|21,237|5,943|5,387|44,866|18,249|87,593|16,034|17,625
08.08.2000|22,767|26,037|22,822|4,736|35,320|58,598|10,487|13,557|35,754|4,362|17,684|8,851|4,216|16,945|83,308|38,888|50,898|2,567|87,556|18,059|21,228|5,940|5,384|44,847|18,241|87,556|16,028|17,618
09.08.2000|22,922|26,294|22,863|4,737|35,325|58,895|10,483|13,553|35,960|4,351|17,761|8,914|4,221|16,940|83,250|39,066|51,175|2,567|87,568|18,061|21,231|5,941|5,385|44,853|18,244|87,568|16,030|17,620
10.08.2000|22,874|26,421|22,836|4,731|35,290|59,093|10,473|13,538|36,395|4,365|17,785|9,032|4,249|16,923|83,176|39,333|51,489|2,565|87,482|18,043|21,210|5,935|5,380|44,809|18,226|87,482|16,014|17,603
11.08.2000|22,607|26,324|22,831|4,730|35,280|58,537|10,465|13,530|36,195|4,353|17,614|8,949|4,232|16,916|82,668|39,042|51,036|2,564|87,457|18,038|21,204|5,934|5,378|44,796|18,221|87,457|16,009|17,598
14.08.2000|22,518|26,121|22,731|4,730|35,275|58,107|10,462|13,513|35,625|4,345|17,520|8,943|4,223|16,906|82,267|38,740|50,710|2,564|87,444|18,036|21,201|5,933|5,378|44,790|18,218|87,444|16,007|17,595
15.08.2000|22,624|26,343|22,717|4,731|35,285|58,802|10,468|13,532|35,891|4,371|17,505|8,967|4,249|16,926|83,064|39,052|51,226|2,564|87,469|18,041|21,207|5,935|5,379|44,803|18,223|87,469|16,012|17,600
16.08.2000|22,625|26,136|22,649|4,737|35,335|58,496|10,486|13,543|35,446|4,360|17,446|8,911|4,233|16,942|83,082|38,808|50,721|2,568|87,593|18,066|21,237|5,943|5,387|44,866|18,249|87,593|16,034|17,625
17.08.2000|22,932|26,326|22,683|4,747|35,410|58,668|10,507|13,572|35,795|4,374|17,548|8,993|4,223|16,969|83,347|39,000|51,105|2,573|87,779|18,105|21,282|5,956|5,398|44,961|18,288|87,779|16,068|17,662
18.08.2000|22,904|26,264|22,657|4,748|35,420|58,095|10,505|13,574|35,720|4,372|17,504|8,970|4,202|16,971|83,514|38,755|50,756|2,574|87,804|18,110|21,288|5,957|5,400|44,974|18,293|87,804|16,073|17,667
21.08.2000|22,927|26,242|22,630|4,749|35,400|57,888|10,495|13,561|35,510|4,380|17,473|8,972|4,203|16,959|83,554|38,695|50,746|2,573|87,754|18,100|21,276|5,954|5,397|44,949|18,283|87,754|16,064|17,657
22.08.2000|23,150|26,588|22,718|4,752|35,435|58,448|10,504|13,580|36,316|4,400|17,703|9,060|4,209|16,969|83,485|39,205|51,367|2,575|87,841|18,118|21,297|5,960|5,402|44,993|18,301|87,841|16,080|17,675
23.08.2000|23,197|26,669|22,687|4,747|35,425|58,471|10,498|13,571|36,323|4,395|17,640|9,101|4,223|16,968|83,294|39,387|51,506|2,574|87,816|18,113|21,291|5,958|5,401|44,980|18,295|87,816|16,075|17,670
24.08.2000|22,638|26,737|22,762|4,744|35,370|58,519|10,482|13,547|36,906|4,389|17,182|9,117|4,227|17,011|82,803|39,595|51,674|2,570|87,680|18,084|21,258|5,949|5,392|44,911|18,267|87,680|16,050|17,642
25.08.2000|22,471|26,395|22,807|4,738|35,340|57,991|10,478|13,534|36,615|4,364|17,006|9,014|4,225|16,920|83,079|39,217|51,198|2,568|87,606|18,069|21,240|5,944|5,388|44,873|18,252|87,606|16,037|17,628
28.08.2000|22,411|26,407|22,871|4,740|35,350|57,724|10,472|13,538|36,562|4,366|16,994|8,937|4,214|16,926|82,834|39,180|51,150|2,569|87,630|18,074|21,246|5,945|5,389|44,885|18,257|87,630|16,041|17,633
29.08.2000|22,461|26,390|22,880|4,741|35,340|57,552|10,473|13,532|36,817|4,375|17,050|8,933|4,196|16,921|82,833|39,164|51,240|2,568|87,606|18,069|21,240|5,944|5,388|44,873|18,252|87,606|16,037|17,628
30.08.2000|22,525|26,496|22,884|4,741|35,360|57,538|10,474|13,538|36,846|4,380|16,975|9,007|4,191|16,952|83,010|39,280|51,417|2,570|87,655|18,079|21,252|5,947|5,391|44,898|18,262|87,655|16,046|17,637
31.08.2000|22,629|26,739|22,814|4,738|35,315|57,437|10,460|13,522|37,446|4,387|16,942|9,060|4,201|16,905|82,648|39,738|51,968|2,566|87,544|18,056|21,225|5,940|5,384|44,841|18,239|87,544|16,025|17,615
01.09.2000|22,792|26,819|22,841|4,746|35,380|57,520|10,479|13,538|37,157|4,378|17,046|9,030|4,199|16,924|82,720|39,535|51,481|2,571|87,705|18,090|21,264|5,950|5,394|44,923|18,272|87,705|16,055|17,647
04.09.2000|22,726|26,999|22,754|4,731|35,295|57,590|10,455|13,502|37,244|4,374|16,789|9,014|4,213|16,884|82,805|39,713|51,818|2,565|87,494|18,046|21,213|5,936|5,381|44,815|18,228|87,494|16,016|17,605
05.09.2000|22,642|26,676|22,777|4,742|35,380|57,441|10,481|13,537|37,106|4,375|16,923|8,992|4,214|16,927|82,826|39,278|51,167|2,571|87,705|18,090|21,264|5,950|5,394|44,923|18,272|87,705|16,055|17,647
06.09.2000|22,698|26,858|22,791|4,735|35,320|57,578|10,464|13,510|37,233|4,368|16,958|9,111|4,216|16,898|82,753|39,581|51,561|2,567|87,556|18,059|21,228|5,940|5,384|44,847|18,241|87,556|16,028|17,618
07.09.2000|22,663|27,032|22,777|4,732|35,305|58,002|10,452|13,481|37,753|4,380|17,068|9,166|4,193|16,891|82,774|39,967|52,050|2,566|87,519|18,051|21,219|5,938|5,382|44,828|18,234|87,519|16,021|17,610
08.09.2000|22,795|27,456|22,801|4,730|35,285|58,392|10,432|13,477|38,675|4,399|16,979|9,196|4,220|16,886|82,780|40,742|53,028|2,564|87,469|18,041|21,207|5,935|5,379|44,803|18,223|87,469|16,012|17,600
11.09.2000|22,688|27,444|22,820|4,743|35,320|57,818|10,452|13,504|38,386|4,401|17,068|9,162|4,239|16,892|82,910|40,519|52,521|2,567|87,556|18,059|21,228|5,940|5,384|44,847|18,241|87,556|16,028|17,618
12.09.2000|22,807|27,728|22,997|4,732|35,290|57,910|10,431|13,471|38,624|4,396|17,288|9,256|4,218|16,880|82,691|40,982|53,121|2,565|87,482|18,043|21,210|5,935|5,380|44,809|18,226|87,482|16,014|17,603
13.09.2000|22,968|27,720|23,266|4,738|35,375|57,548|10,458|13,507|38,630|4,445|17,625|9,227|4,225|16,921|82,608|41,050|52,908|2,571|87,692|18,087|21,261|5,950|5,393|44,917|18,270|87,692|16,052|17,645
14.09.2000|22,813|27,710|23,200|4,752|35,475|57,730|10,488|13,562|38,322|4,412|17,356|9,120|4,224|16,958|82,698|40,997|52,818|2,578|87,940|18,138|21,321|5,966|5,408|45,044|18,321|87,940|16,098|17,695
15.09.2000|22,540|27,383|23,217|4,757|35,490|57,834|10,499|13,566|38,032|4,409|17,107|9,086|4,210|16,973|82,731|40,793|52,556|2,579|87,977|18,146|21,330|5,969|5,410|45,063|18,329|87,977|16,105|17,702
18.09.2000|22,633|27,602|23,211|4,760|35,545|57,919|10,502|13,567|38,159|4,420|17,279|9,159|4,227|17,001|82,972|41,057|52,973|2,583|88,114|18,174|21,363|5,978|5,419|45,133|18,357|88,114|16,130|17,730
19.09.2000|22,696|28,083|23,375|4,774|35,640|58,319|10,521|13,606|39,002|4,462|17,287|9,172|4,245|17,038|83,101|41,701|53,650|2,590|88,349|18,222|21,420|5,994|5,433|45,253|18,407|88,349|16,173|17,777
20.09.2000|22,591|27,986|23,395|4,754|35,510|58,438|10,477|13,541|38,964|4,439|17,134|9,082|4,240|16,978|82,462|41,654|53,488|2,581|88,027|18,156|21,342|5,972|5,413|45,088|18,339|88,027|16,114|17,712
21.09.2000|22,589|28,252|23,462|4,742|35,410|59,055|10,445|13,500|39,285|4,441|17,144|9,104|4,235|16,936|82,086|41,913|53,803|2,573|87,779|18,105|21,282|5,956|5,398|44,961|18,288|87,779|16,068|17,662
22.09.2000|22,473|28,085|23,542|4,752|35,485|59,017|10,466|13,511|39,141|4,444|16,849|9,038|4,235|16,964|82,065|41,691|53,491|2,579|87,965|18,143|21,327|5,968|5,410|45,057|18,326|87,965|16,102|17,700
25.09.2000|22,741|27,731|23,426|4,770|35,590|59,833|10,493|13,525|38,515|4,435|16,977|8,965|4,229|17,001|81,769|41,261|53,051|2,586|88,225|18,197|21,390|5,986|5,426|45,190|18,381|88,225|16,150|17,752
26.09.2000|22,016|27,156|23,321|4,759|35,510|58,884|10,468|13,500|37,551|4,401|16,691|8,897|4,194|16,964|81,402|40,414|52,395|2,581|88,027|18,156|21,342|5,972|5,413|45,088|18,339|88,027|16,114|17,712
27.09.2000|22,061|27,097|23,286|4,747|35,430|58,751|10,436|13,460|37,534|4,408|16,670|8,818|4,178|16,924|81,188|40,291|52,277|2,575|87,829|18,115|21,294|5,959|5,401|44,987|18,298|87,829|16,077|17,672
29.09.2000|21,980|26,891|23,236|4,751|35,470|58,608|10,452|13,463|37,154|4,404|16,577|8,790|4,171|16,947|81,223|40,018|51,923|2,578|87,928|18,136|21,318|5,966|5,407|45,038|18,319|87,928|16,096|17,692
02.10.2000|21,862|26,904|23,314|4,769|35,560|59,142|10,480|13,484|37,416|4,427|16,471|8,895|4,169|16,980|81,192|40,370|52,480|2,584|88,151|18,182|21,372|5,981|5,421|45,152|18,365|88,151|16,136|17,737
03.10.2000|21,895|26,792|23,336|4,772|35,585|59,444|10,488|13,479|37,216|4,430|16,374|8,936|4,173|16,985|81,082|40,296|52,299|2,586|88,213|18,194|21,387|5,985|5,425|45,184|18,378|88,213|16,148|17,750
04.10.2000|22,130|27,012|23,451|4,792|35,715|59,617|10,531|13,566|37,432|4,448|16,533|8,909|4,185|17,046|81,416|40,736|52,876|2,596|88,535|18,261|21,465|6,007|5,445|45,349|18,445|88,535|16,207|17,815
05.10.2000|21,857|27,153|23,536|4,790|35,695|59,280|10,512|13,560|37,489|4,433|16,384|8,969|4,153|17,027|81,300|40,783|52,798|2,594|88,486|18,251|21,453|6,003|5,442|45,323|18,435|88,486|16,198|17,805
06.10.2000|21,982|27,286|23,512|4,789|35,695|59,484|10,522|13,570|37,416|4,440|16,488|8,994|4,175|17,029|81,379|40,878|52,838|2,594|88,486|18,251|21,453|6,003|5,442|45,323|18,435|88,486|16,198|17,805
09.10.2000|21,736|27,295|23,366|4,784|35,645|59,176|10,507|13,560|37,472|4,437|16,393|8,949|4,176|17,007|81,206|40,814|52,696|2,590|88,362|18,225|21,423|5,995|5,434|45,260|18,409|88,362|16,175|17,780
10.10.2000|21,875|27,276|23,425|4,781|35,625|59,340|10,494|13,573|37,603|4,434|16,510|9,022|4,165|16,991|81,160|40,984|52,912|2,589|88,312|18,215|21,411|5,992|5,431|45,234|18,399|88,312|16,166|17,770
11.10.2000|21,656|27,095|23,352|4,770|35,550|59,282|10,475|13,542|37,562|4,414|16,370|8,921|4,140|16,938|81,238|40,696|52,541|2,584|88,126|18,176|21,366|5,979|5,420|45,139|18,360|88,126|16,132|17,732
12.10.2000|21,677|26,973|23,372|4,752|35,410|59,199|10,431|13,479|37,525|4,389|16,440|8,793|4,108|16,881|80,910|40,469|52,358|2,573|87,779|18,105|21,282|5,956|5,398|44,961|18,288|87,779|16,068|17,662
13.10.2000|21,692|27,179|23,448|4,758|35,435|59,696|10,437|13,467|37,961|4,391|16,259|8,757|4,127|16,890|80,930|40,909|52,948|2,575|87,841|18,118|21,297|5,960|5,402|44,993|18,301|87,841|16,080|17,675
16.10.2000|21,778|27,016|23,513|4,761|35,450|60,565|10,440|13,474|37,987|4,408|16,407|8,737|4,155|16,873|80,927|40,971|52,975|2,576|87,878|18,125|21,306|5,962|5,404|45,012|18,308|87,878|16,087|17,682
17.10.2000|21,834|27,467|23,395|4,746|35,355|60,105|10,418|13,435|38,393|4,419|16,477|8,865|4,160|16,820|80,710|41,489|53,669|2,569|87,643|18,077|21,249|5,946|5,390|44,892|18,259|87,643|16,043|17,635
18.10.2000|21,627|27,395|23,408|4,749|35,360|59,974|10,423|13,444|38,484|4,407|16,404|8,878|4,151|16,820|81,050|41,634|53,491|2,570|87,655|18,079|21,252|5,947|5,391|44,898|18,262|87,655|16,046|17,637
19.10.2000|21,576|27,260|23,406|4,751|35,385|59,836|10,425|13,439|38,303|4,398|16,379|8,858|4,146|16,823|80,977|41,408|53,139|2,572|87,717|18,092|21,267|5,951|5,394|44,930|18,275|87,717|16,057|17,650
20.10.2000|21,451|27,357|23,134|4,678|34,880|59,695|10,255|13,245|38,343|4,349|16,241|8,784|4,100|16,547|79,579|41,352|53,165|2,535|86,465|17,834|20,963|5,866|5,317|44,288|18,014|86,465|15,828|17,398
23.10.2000|21,750|27,288|23,102|4,674|34,800|59,568|10,247|13,243|37,916|4,343|16,557|8,832|4,092|16,557|79,628|41,181|52,817|2,529|86,267|17,793|20,915|5,853|5,305|44,187|17,973|86,267|15,792|17,358
24.10.2000|21,941|27,353|23,124|4,669|34,750|60,240|10,233|13,235|37,962|4,365|16,651|8,791|4,088|16,543|80,078|41,394|53,080|2,525|86,143|17,767|20,885|5,845|5,298|44,123|17,947|86,143|15,769|17,333
25.10.2000|21,954|27,542|23,216|4,686|34,880|60,521|10,275|13,288|38,478|4,387|16,783|8,857|4,127|16,607|80,267|41,608|53,231|2,535|86,465|17,834|20,963|5,866|5,317|44,288|18,014|86,465|15,828|17,398
26.10.2000|21,697|27,533|23,146|4,668|34,745|60,284|10,233|13,229|38,653|4,372|16,671|8,916|4,109|16,530|79,919|41,809|53,518|2,525|86,131|17,765|20,882|5,844|5,297|44,117|17,944|86,131|15,767|17,331
27.10.2000|21,782|27,805|23,054|4,678|34,820|59,968|10,255|13,247|39,012|4,388|16,773|8,997|4,107|16,550|79,962|42,127|53,810|2,530|86,317|17,803|20,927|5,856|5,308|44,212|17,983|86,317|15,801|17,368
30.10.2000|21,803|27,517|23,045|4,679|34,840|60,060|10,253|13,227|38,611|4,386|16,758|8,929|4,102|16,564|80,247|41,900|53,520|2,532|86,366|17,813|20,939|5,860|5,311|44,238|17,993|86,366|15,810|17,378
31.10.2000|21,520|26,790|22,826|4,684|34,860|59,968|10,265|13,236|37,696|4,389|16,571|8,790|4,103|16,576|80,272|40,932|52,248|2,533|86,416|17,824|20,951|5,863|5,314|44,263|18,004|86,416|15,819|17,388
01.11.2000|21,307|27,090|22,924|4,681|34,855|60,191|10,261|13,236|38,036|4,418|16,314|8,864|4,107|16,569|80,168|41,506|53,349|2,533|86,403|17,821|20,948|5,862|5,314|44,257|18,001|86,403|15,817|17,386
02.11.2000|21,257|26,740|22,809|4,672|34,795|58,926|10,241|13,214|37,530|4,427|16,177|8,760|4,109|16,540|80,010|40,703|52,073|2,529|86,255|17,790|20,912|5,852|5,304|44,181|17,970|86,255|15,789|17,356
03.11.2000|21,246|26,221|22,646|4,645|34,580|58,231|10,172|13,139|37,099|4,350|16,089|8,721|4,055|16,436|79,411|40,158|51,620|2,513|85,722|17,680|20,783|5,816|5,272|43,908|17,859|85,722|15,692|17,248
06.11.2000|20,988|25,954|22,651|4,652|34,665|57,701|10,198|13,138|36,795|4,331|15,930|8,823|4,051|16,478|79,602|39,769|51,322|2,519|85,932|17,724|20,834|5,830|5,285|44,015|17,903|85,932|15,730|17,291
07.11.2000|21,113|26,098|22,753|4,660|34,700|57,957|10,210|13,154|37,326|4,351|16,044|8,869|4,049|16,502|79,981|39,975|51,736|2,522|86,019|17,742|20,855|5,836|5,290|44,060|17,921|86,019|15,746|17,308
08.11.2000|21,193|26,276|22,781|4,654|34,690|57,433|10,205|13,153|37,466|4,348|16,003|8,865|4,031|16,469|79,844|40,225|52,009|2,521|85,994|17,737|20,849|5,834|5,288|44,047|17,916|85,994|15,742|17,303
09.11.2000|21,367|26,347|22,828|4,655|34,690|57,534|10,201|13,144|37,631|4,356|16,104|8,873|4,043|16,430|80,749|40,417|52,074|2,521|85,994|17,737|20,849|5,834|5,288|44,047|17,916|85,994|15,742|17,303
10.11.2000|21,252|26,291|22,800|4,647|34,645|57,347|10,186|13,118|37,801|4,362|16,082|8,842|4,047|16,414|81,107|40,561|52,131|2,518|85,883|17,714|20,822|5,827|5,282|43,990|17,893|85,883|15,721|17,281
13.11.2000|21,076|25,901|22,763|4,653|34,680|57,150|10,197|13,136|37,092|4,334|15,949|8,759|4,036|16,402|81,233|39,988|51,395|2,520|85,969|17,732|20,843|5,833|5,287|44,035|17,911|85,969|15,737|17,298
14.11.2000|20,936|26,091|22,795|4,658|34,725|57,616|10,210|13,148|37,392|4,346|15,902|8,769|4,027|16,432|81,609|40,273|51,886|2,524|86,081|17,755|20,870|5,840|5,294|44,092|17,934|86,081|15,758|17,321
15.11.2000|20,989|26,103|22,801|4,648|34,680|57,895|10,194|13,143|37,374|4,333|16,031|8,816|4,011|16,407|81,337|40,304|51,898|2,520|85,969|17,732|20,843|5,833|5,287|44,035|17,911|85,969|15,737|17,298
16.11.2000|20,951|26,074|22,781|4,647|34,665|57,648|10,193|13,150|37,168|4,311|16,020|8,872|4,011|16,394|81,007|40,318|51,881|2,519|85,932|17,724|20,834|5,830|5,285|44,015|17,903|85,932|15,730|17,291
20.11.2000|21,037|26,035|22,695|4,646|34,675|57,530|10,193|13,157|37,106|4,323|16,123|8,837|4,010|16,396|81,106|40,404|51,929|2,520|85,957|17,729|20,840|5,832|5,286|44,028|17,908|85,957|15,735|17,296
21.11.2000|21,034|26,202|22,699|4,651|34,685|58,192|10,196|13,145|37,407|4,344|16,235|8,928|4,007|16,384|80,738|40,847|52,345|2,521|85,982|17,734|20,846|5,834|5,288|44,041|17,913|85,982|15,739|17,301
22.11.2000|20,922|26,206|22,781|4,651|34,700|58,102|10,199|13,133|37,020|4,319|16,149|8,942|3,997|16,399|81,263|40,795|52,218|2,522|86,019|17,742|20,855|5,836|5,290|44,060|17,921|86,019|15,746|17,308
23.11.2000|21,203|26,457|22,785|4,638|34,620|58,119|10,175|13,102|37,347|4,317|16,303|8,956|3,985|16,389|81,306|40,968|52,329|2,516|85,821|17,701|20,807|5,823|5,278|43,958|17,880|85,821|15,710|17,268
24.11.2000|21,242|26,367|22,597|4,604|34,360|57,192|10,100|13,006|36,972|4,294|16,251|8,866|3,966|16,227|80,714|40,713|51,920|2,497|85,176|17,568|20,651|5,779|5,238|43,628|17,745|85,176|15,592|17,139
27.11.2000|21,248|26,288|22,491|4,586|34,220|56,987|10,054|12,936|36,546|4,270|16,303|8,885|3,934|16,153|80,099|40,670|51,865|2,487|84,829|17,496|20,567|5,755|5,217|43,450|17,673|84,829|15,528|17,069
28.11.2000|21,264|26,551|22,616|4,600|34,300|57,381|10,076|12,963|36,665|4,282|16,344|8,977|3,956|16,186|80,267|40,833|52,073|2,493|85,027|17,537|20,615|5,769|5,229|43,552|17,714|85,027|15,565|17,109
29.11.2000|21,277|26,392|22,733|4,617|34,440|57,263|10,114|13,014|36,517|4,296|16,423|8,996|3,964|16,244|80,215|40,415|51,304|2,503|85,375|17,609|20,699|5,792|5,250|43,730|17,787|85,375|15,628|17,179
30.11.2000|21,062|26,086|22,867|4,637|34,580|57,051|10,156|13,048|36,470|4,311|16,291|8,909|3,978|16,302|80,643|40,130|51,217|2,513|85,722|17,680|20,783|5,816|5,272|43,908|17,859|85,722|15,692|17,248
01.12.2000|20,868|25,875|22,917|4,635|34,580|56,652|10,151|13,052|36,010|4,295|16,169|8,909|3,973|16,286|80,372|39,859|51,112|2,513|85,722|17,680|20,783|5,816|5,272|43,908|17,859|85,722|15,692|17,248
04.12.2000|21,231|25,790|22,889|4,645|34,640|56,705|10,170|13,066|35,533|4,287|16,461|8,846|3,981|16,307|80,129|39,519|50,662|2,517|85,870|17,711|20,819|5,826|5,281|43,984|17,890|85,870|15,719|17,278
05.12.2000|21,413|25,452|23,026|4,683|34,910|56,876|10,251|13,171|35,479|4,299|16,680|8,841|4,041|16,437|80,253|39,373|50,562|2,537|86,540|17,849|20,981|5,871|5,322|44,327|18,030|86,540|15,841|17,413
06.12.2000|21,427|25,589|23,107|4,681|34,890|57,080|10,249|13,151|35,567|4,295|16,684|8,909|4,055|16,407|80,281|39,428|50,927|2,536|86,490|17,839|20,969|5,868|5,319|44,301|18,019|86,490|15,832|17,403
07.12.2000|21,491|25,553|23,004|4,671|34,820|56,581|10,224|13,137|35,488|4,305|16,780|8,935|4,066|16,364|79,963|39,358|50,768|2,530|86,317|17,803|20,927|5,856|5,308|44,212|17,983|86,317|15,801|17,368
08.12.2000|21,458|25,577|23,089|4,699|35,020|56,414|10,283|13,209|35,363|4,314|16,782|8,909|4,066|16,473|80,404|39,050|50,346|2,545|86,812|17,905|21,047|5,890|5,339|44,466|18,086|86,812|15,891|17,468
11.12.2000|21,513|25,719|23,080|4,681|34,900|56,909|10,252|13,158|35,418|4,300|16,845|8,943|4,042|16,401|80,548|39,326|50,910|2,536|86,515|17,844|20,975|5,870|5,320|44,314|18,024|86,515|15,837|17,408
12.12.2000|21,428|25,989|23,101|4,674|34,845|57,272|10,228|13,133|35,618|4,306|16,750|8,946|4,077|16,357|80,474|39,473|51,020|2,532|86,378|17,816|20,942|5,861|5,312|44,244|17,996|86,378|15,812|17,381
13.12.2000|21,406|25,889|23,112|4,664|34,770|57,359|10,205|13,109|35,508|4,305|16,738|8,995|4,084|16,358|80,431|39,426|50,959|2,527|86,193|17,778|20,897|5,848|5,301|44,149|17,957|86,193|15,778|17,343
14.12.2000|21,422|25,948|23,093|4,658|34,730|57,321|10,193|13,113|35,235|4,287|16,670|9,008|4,064|16,291|80,041|39,630|51,043|2,524|86,093|17,757|20,873|5,841|5,295|44,098|17,937|86,093|15,760|17,323
15.12.2000|21,336|25,906|23,118|4,666|34,780|57,665|10,207|13,134|34,990|4,287|16,660|9,035|4,057|16,348|80,375|39,380|50,563|2,528|86,217|17,783|20,903|5,850|5,302|44,161|17,962|86,217|15,782|17,348
18.12.2000|21,137|25,518|23,103|4,669|34,810|57,159|10,215|13,149|34,370|4,272|16,575|8,958|4,056|16,322|80,384|38,723|49,927|2,530|86,292|17,798|20,921|5,855|5,307|44,200|17,978|86,292|15,796|17,363
19.12.2000|21,011|25,401|23,014|4,649|34,680|56,974|10,175|13,102|34,282|4,285|16,530|8,950|4,013|16,261|79,808|38,634|50,021|2,520|85,969|17,732|20,843|5,833|5,287|44,035|17,911|85,969|15,737|17,298
20.12.2000|21,076|25,530|23,054|4,655|34,720|57,111|10,189|13,121|34,746|4,300|16,707|9,049|3,992|16,308|79,651|38,967|50,409|2,523|86,069|17,752|20,867|5,839|5,293|44,085|17,931|86,069|15,755|17,318
21.12.2000|21,106|25,365|22,914|4,651|34,695|56,703|10,183|13,132|34,227|4,267|16,762|9,048|3,988|16,300|80,131|38,644|49,900|2,521|86,007|17,739|20,852|5,835|5,289|44,054|17,918|86,007|15,744|17,306
22.12.2000|21,010|24,943|22,776|4,661|34,770|55,850|10,199|13,148|33,781|4,249|16,684|8,988|3,978|16,298|79,107|37,975|49,193|2,527|86,193|17,778|20,897|5,848|5,301|44,149|17,957|86,193|15,778|17,343
27.12.2000|21,052|24,832|22,870|4,675|34,900|55,954|10,239|13,175|33,644|4,261|16,628|9,033|3,987|16,349|79,612|37,779|49,142|2,536|86,515|17,844|20,975|5,870|5,320|44,314|18,024|86,515|15,837|17,408
28.12.2000|20,914|24,833|22,928|4,687|34,970|55,865|10,270|13,214|32,890|4,255|16,627|9,056|3,946|16,382|79,575|37,538|48,975|2,541|86,688|17,880|21,017|5,882|5,331|44,403|18,060|86,688|15,869|17,443
29.12.2000|21,033|24,998|22,991|4,703|35,090|56,373|10,298|13,214|33,021|4,252|16,711|9,122|3,971|16,435|79,703|37,813|49,334|2,550|86,986|17,941|21,090|5,902|5,349|44,555|18,122|86,986|15,923|17,503
