Datum|1 AUD|1 CAD|1 CHF|1 DKK|1 EUR|1 GBP|100 HUF|100 JPY|1 NOK|1 NZD|1 PLN|1 SEK|100 SIT|100 SKK|1 USD|1 XDR|1 ATS|100 BEF|1 DEM|100 ESP|1 FIM|1 FRF|100 GRD|1 IEP|1000 ITL|100 LUF|1 NLG|100 PTE
02.01.2001|20,877|25,064|23,005|4,691|35,010|56,139|13,207|32,745|4,245|16,581|9,093|3,968|16,383|79,743|37,619|48,993|2,544|86,788|17,900|21,041|5,888|5,337|10,274|44,454|18,081|86,788|15,887|17,463
03.01.2001|20,803|24,866|23,085|4,714|35,160|55,475|13,291|32,398|4,237|16,474|9,079|3,958|16,473|80,109|37,224|48,500|2,555|87,159|17,977|21,132|5,913|5,360|10,318|44,644|18,159|87,159|15,955|17,538
04.01.2001|20,863|24,795|23,166|4,730|35,280|55,590|13,326|32,303|4,244|16,508|9,071|3,946|16,518|80,210|36,968|48,391|2,564|87,457|18,038|21,204|5,934|5,378|10,354|44,796|18,221|87,457|16,009|17,598
05.01.2001|20,975|24,741|23,118|4,719|35,180|55,581|13,283|32,403|4,250|16,555|8,995|3,945|16,473|80,347|37,016|48,688|2,557|87,209|17,987|21,144|5,917|5,363|10,324|44,669|18,169|87,209|15,964|17,548
08.01.2001|21,014|24,566|23,040|4,722|35,245|55,476|13,311|31,643|4,245|16,637|9,033|3,952|16,495|80,315|36,935|48,433|2,561|87,370|18,020|21,183|5,928|5,373|10,343|44,752|18,203|87,370|15,993|17,580
09.01.2001|20,989|24,694|23,000|4,713|35,180|55,606|13,278|31,765|4,244|16,665|9,022|3,943|16,459|80,221|37,004|48,530|2,557|87,209|17,987|21,144|5,917|5,363|10,324|44,669|18,169|87,209|15,964|17,548
10.01.2001|20,985|24,972|23,063|4,705|35,115|55,577|13,255|32,219|4,249|16,640|9,051|3,942|16,421|80,171|37,323|48,947|2,552|87,048|17,954|21,105|5,906|5,353|10,305|44,587|18,135|87,048|15,934|17,515
11.01.2001|20,782|24,886|22,992|4,693|35,025|55,582|13,200|32,005|4,271|16,663|9,001|3,924|16,371|80,447|37,241|48,613|2,545|86,825|17,908|21,050|5,891|5,340|10,279|44,473|18,089|86,825|15,894|17,470
12.01.2001|20,741|24,825|23,035|4,714|35,220|55,598|13,281|31,830|4,292|16,683|8,975|3,971|16,430|80,975|37,268|48,622|2,560|87,308|18,008|21,168|5,924|5,369|10,336|44,720|18,190|87,308|15,982|17,568
15.01.2001|20,823|24,900|23,009|4,738|35,375|55,540|13,350|31,636|4,326|16,749|9,036|3,994|16,484|81,152|37,207|48,695|2,571|87,692|18,087|21,261|5,950|5,393|10,382|44,917|18,270|87,692|16,052|17,645
16.01.2001|20,620|24,824|22,832|4,722|35,260|55,198|13,308|31,375|4,289|16,544|9,085|3,976|16,432|80,816|37,324|48,817|2,562|87,407|18,028|21,192|5,930|5,375|10,348|44,771|18,210|87,407|16,000|17,588
17.01.2001|20,862|24,978|22,965|4,727|35,300|55,223|13,324|31,861|4,301|16,727|9,147|3,968|16,430|80,942|37,559|49,125|2,565|87,506|18,049|21,216|5,937|5,381|10,360|44,822|18,231|87,506|16,018|17,608
18.01.2001|20,956|25,188|23,127|4,762|35,545|55,807|13,410|32,209|4,325|16,844|9,237|3,986|16,575|81,175|37,898|49,284|2,583|88,114|18,174|21,363|5,978|5,419|10,431|45,133|18,357|88,114|16,130|17,730
19.01.2001|20,852|24,812|23,108|4,732|35,330|55,269|13,328|31,527|4,305|16,799|9,140|3,965|16,476|80,799|37,493|48,731|2,568|87,581|18,064|21,234|5,942|5,386|10,368|44,860|18,246|87,581|16,032|17,623
22.01.2001|20,928|24,755|23,098|4,722|35,240|55,183|13,296|31,738|4,286|16,795|9,148|3,957|16,405|80,638|37,402|48,615|2,561|87,358|18,018|21,180|5,927|5,372|10,342|44,746|18,200|87,358|15,991|17,578
23.01.2001|20,962|25,048|22,961|4,716|35,200|55,298|13,283|32,497|4,291|16,898|9,161|3,956|16,395|80,471|37,841|49,240|2,558|87,259|17,997|21,156|5,920|5,366|10,330|44,695|18,179|87,259|15,973|17,558
24.01.2001|20,784|24,888|22,966|4,720|35,250|55,099|13,304|31,957|4,268|16,765|9,134|3,930|16,422|80,690|37,418|48,533|2,562|87,382|18,023|21,186|5,929|5,374|10,345|44,758|18,205|87,382|15,996|17,583
25.01.2001|20,644|24,866|22,847|4,682|34,955|54,972|13,189|31,875|4,235|16,688|9,122|3,926|16,282|80,126|37,532|48,865|2,540|86,651|17,872|21,008|5,879|5,329|10,258|44,384|18,053|86,651|15,862|17,435
26.01.2001|20,668|25,105|22,852|4,673|34,890|55,288|13,156|32,330|4,244|16,504|9,163|3,907|16,239|79,986|37,996|49,225|2,536|86,490|17,839|20,969|5,868|5,319|10,239|44,301|18,019|86,490|15,832|17,403
29.01.2001|20,314|24,882|22,813|4,666|34,825|54,928|13,133|32,104|4,235|16,311|9,084|3,913|16,209|79,881|37,414|48,191|2,531|86,329|17,806|20,930|5,857|5,309|10,220|44,219|17,986|86,329|15,803|17,371
30.01.2001|20,521|25,138|22,829|4,664|34,800|55,148|13,124|32,489|4,249|16,470|9,129|3,925|16,193|79,731|37,789|48,966|2,529|86,267|17,793|20,915|5,853|5,305|10,213|44,187|17,973|86,267|15,792|17,358
31.01.2001|20,534|25,212|22,812|4,646|34,670|55,157|13,075|32,526|4,234|16,442|9,155|3,928|16,127|79,546|37,868|48,918|2,520|85,945|17,726|20,837|5,831|5,285|10,175|44,022|17,906|85,945|15,733|17,293
01.02.2001|20,406|24,820|22,719|4,651|34,700|54,523|13,084|32,053|4,231|16,427|9,131|3,923|16,165|79,300|37,296|48,160|2,522|86,019|17,742|20,855|5,836|5,290|10,183|44,060|17,921|86,019|15,746|17,308
02.02.2001|20,506|24,713|22,723|4,669|34,850|54,508|13,138|31,851|4,243|16,541|9,105|3,916|16,175|79,705|37,017|48,041|2,533|86,391|17,819|20,945|5,861|5,313|10,227|44,250|17,999|86,391|15,814|17,383
05.02.2001|20,583|24,805|22,697|4,667|34,830|54,730|13,129|32,177|4,244|16,684|9,203|3,909|16,158|79,646|37,030|48,057|2,531|86,341|17,808|20,933|5,858|5,310|10,222|44,225|17,988|86,341|15,805|17,373
06.02.2001|20,466|24,767|22,624|4,668|34,850|54,672|13,134|32,037|4,249|16,389|9,187|3,900|16,158|79,748|37,092|48,422|2,533|86,391|17,819|20,945|5,861|5,313|10,227|44,250|17,999|86,391|15,814|17,383
07.02.2001|20,354|24,610|22,564|4,647|34,680|54,441|13,073|32,395|4,239|16,411|9,130|3,890|16,083|79,377|37,125|48,442|2,520|85,969|17,732|20,843|5,833|5,287|10,178|44,035|17,911|85,969|15,737|17,298
08.02.2001|20,343|24,621|22,519|4,642|34,640|54,326|13,054|32,121|4,239|16,470|9,125|3,891|16,080|79,258|37,221|48,482|2,517|85,870|17,711|20,819|5,826|5,281|10,166|43,984|17,890|85,870|15,719|17,278
09.02.2001|20,261|24,706|22,564|4,638|34,610|54,231|13,034|32,109|4,233|16,352|9,157|3,899|16,051|79,137|37,338|48,501|2,515|85,796|17,696|20,801|5,821|5,276|10,157|43,946|17,875|85,796|15,705|17,263
12.02.2001|20,146|24,888|22,560|4,641|34,620|54,269|13,042|32,021|4,239|16,375|9,149|3,886|16,072|79,349|37,569|48,802|2,516|85,821|17,701|20,807|5,823|5,278|10,160|43,958|17,880|85,821|15,710|17,268
13.02.2001|20,051|24,647|22,529|4,640|34,625|54,126|13,039|31,618|4,221|16,323|9,128|3,867|16,051|79,402|37,279|48,132|2,516|85,833|17,703|20,810|5,824|5,279|10,161|43,965|17,882|85,833|15,712|17,271
14.02.2001|19,985|24,453|22,459|4,629|34,540|54,055|13,001|31,724|4,204|16,248|9,122|3,839|16,025|79,252|37,186|48,093|2,510|85,622|17,660|20,759|5,809|5,266|10,136|43,857|17,838|85,622|15,674|17,228
15.02.2001|19,904|24,653|22,480|4,626|34,525|54,644|12,997|32,264|4,202|16,238|9,190|3,823|16,018|78,973|37,515|48,568|2,509|85,585|17,652|20,750|5,807|5,263|10,132|43,838|17,831|85,585|15,667|17,221
16.02.2001|19,914|24,763|22,490|4,624|34,510|55,000|12,992|32,556|4,201|16,137|9,220|3,831|16,014|78,953|37,819|48,884|2,508|85,548|17,645|20,741|5,804|5,261|10,128|43,819|17,823|85,548|15,660|17,214
19.02.2001|19,969|24,673|22,412|4,615|34,460|54,953|12,971|32,961|4,202|16,204|9,210|3,849|15,990|78,770|37,816|48,667|2,504|85,424|17,619|20,711|5,796|5,253|10,113|43,755|17,797|85,424|15,637|17,189
20.02.2001|19,921|24,415|22,552|4,642|34,655|54,623|13,039|32,487|4,232|16,217|9,207|3,856|16,089|79,175|37,605|48,569|2,518|85,908|17,719|20,828|5,829|5,283|10,170|44,003|17,898|85,908|15,726|17,286
21.02.2001|19,954|24,708|22,489|4,630|34,560|54,629|13,007|32,755|4,198|16,255|9,248|3,844|16,027|79,080|37,938|49,000|2,512|85,672|17,670|20,771|5,813|5,269|10,142|43,882|17,849|85,672|15,683|17,238
22.02.2001|19,875|24,505|22,524|4,637|34,630|54,554|13,030|32,455|4,204|16,196|9,199|3,841|16,054|79,341|37,767|48,599|2,517|85,846|17,706|20,813|5,824|5,279|10,163|43,971|17,885|85,846|15,714|17,273
23.02.2001|20,008|24,948|22,670|4,648|34,695|55,238|13,026|33,009|4,214|16,374|9,198|3,851|16,107|79,226|38,333|49,410|2,521|86,007|17,739|20,852|5,835|5,289|10,182|44,054|17,918|86,007|15,744|17,306
26.02.2001|19,990|24,903|22,590|4,638|34,620|55,292|13,017|32,848|4,208|16,429|9,249|3,832|16,064|79,023|38,292|49,235|2,516|85,821|17,701|20,807|5,823|5,278|10,160|43,958|17,880|85,821|15,710|17,268
27.02.2001|19,942|24,742|22,527|4,631|34,595|55,067|12,993|32,718|4,204|16,501|9,231|3,824|16,056|79,021|37,981|48,790|2,514|85,759|17,688|20,792|5,818|5,274|10,153|43,927|17,867|85,759|15,699|17,256
28.02.2001|19,869|24,732|22,521|4,635|34,595|54,602|12,995|32,541|4,205|16,329|9,238|3,830|16,065|79,092|37,798|48,655|2,514|85,759|17,688|20,792|5,818|5,274|10,153|43,927|17,867|85,759|15,699|17,256
01.03.2001|19,743|24,630|22,514|4,645|34,665|54,382|13,034|32,161|4,207|16,186|9,238|3,829|16,088|79,174|37,638|48,548|2,519|85,932|17,724|20,834|5,830|5,285|10,173|44,015|17,903|85,932|15,730|17,291
02.03.2001|19,810|24,357|22,501|4,649|34,690|54,233|13,030|31,969|4,212|16,215|9,308|3,826|16,102|79,208|37,452|48,406|2,521|85,994|17,737|20,849|5,834|5,288|10,180|44,047|17,916|85,994|15,742|17,303
05.03.2001|19,616|24,023|22,610|4,659|34,770|54,475|13,052|31,335|4,229|16,189|9,372|3,847|16,127|79,311|37,161|48,073|2,527|86,193|17,778|20,897|5,848|5,301|10,204|44,149|17,957|86,193|15,778|17,343
06.03.2001|19,587|24,279|22,700|4,672|34,875|55,004|13,092|31,425|4,241|16,200|9,393|3,847|16,163|79,496|37,456|48,592|2,534|86,453|17,831|20,960|5,866|5,317|10,235|44,282|18,011|86,453|15,826|17,396
07.03.2001|19,516|24,381|22,693|4,672|34,855|55,175|13,094|31,755|4,237|16,198|9,418|3,857|16,155|79,485|37,622|48,808|2,533|86,403|17,821|20,948|5,862|5,314|10,229|44,257|18,001|86,403|15,817|17,386
08.03.2001|19,170|24,282|22,693|4,678|34,920|54,775|13,112|31,111|4,253|15,914|9,456|3,855|16,173|79,645|37,388|48,363|2,538|86,564|17,854|20,987|5,873|5,324|10,248|44,339|18,035|86,564|15,846|17,418
09.03.2001|18,999|24,009|22,532|4,652|34,720|54,667|13,034|31,134|4,225|15,697|9,350|3,841|16,087|79,207|37,235|48,162|2,523|86,069|17,752|20,867|5,839|5,293|10,189|44,085|17,931|86,069|15,755|17,318
12.03.2001|18,965|23,961|22,454|4,641|34,640|54,500|13,012|31,050|4,226|15,715|9,317|3,815|16,035|79,200|37,060|47,952|2,517|85,870|17,711|20,819|5,826|5,281|10,166|43,984|17,890|85,870|15,719|17,278
13.03.2001|18,975|24,039|22,472|4,638|34,640|54,551|13,011|30,859|4,219|15,626|9,343|3,801|16,020|79,267|37,223|48,219|2,517|85,870|17,711|20,819|5,826|5,281|10,166|43,984|17,890|85,870|15,719|17,278
14.03.2001|18,902|24,171|22,529|4,641|34,650|54,684|13,007|31,264|4,211|15,646|9,253|3,772|16,028|79,314|37,530|48,442|2,518|85,895|17,716|20,825|5,828|5,282|10,169|43,996|17,895|85,895|15,723|17,283
15.03.2001|18,909|24,507|22,487|4,635|34,610|54,901|12,984|31,610|4,222|15,795|9,301|3,782|16,016|79,208|37,860|48,758|2,515|85,796|17,696|20,801|5,821|5,276|10,157|43,946|17,875|85,796|15,705|17,263
16.03.2001|18,801|24,407|22,470|4,635|34,580|54,973|12,976|31,445|4,218|15,644|9,286|3,778|15,983|79,064|37,994|48,849|2,513|85,722|17,680|20,783|5,816|5,272|10,148|43,908|17,859|85,722|15,692|17,248
19.03.2001|19,057|24,683|22,477|4,628|34,550|55,421|12,966|31,433|4,225|15,860|9,383|3,785|15,971|79,048|38,636|49,389|2,511|85,647|17,665|20,765|5,811|5,267|10,139|43,869|17,844|85,647|15,678|17,233
20.03.2001|19,355|24,568|22,542|4,623|34,585|55,104|12,973|31,345|4,252|16,226|9,306|3,784|15,975|79,091|38,468|48,866|2,513|85,734|17,683|20,786|5,817|5,272|10,150|43,914|17,862|85,734|15,694|17,251
21.03.2001|19,135|24,490|22,584|4,637|34,610|54,762|12,991|31,177|4,258|16,044|9,295|3,777|16,000|79,277|38,304|48,764|2,515|85,796|17,696|20,801|5,821|5,276|10,157|43,946|17,875|85,796|15,705|17,263
22.03.2001|19,162|24,535|22,549|4,629|34,560|54,934|12,965|31,088|4,251|16,025|9,344|3,772|15,974|79,207|38,475|48,974|2,512|85,672|17,670|20,771|5,813|5,269|10,142|43,882|17,849|85,672|15,683|17,238
23.03.2001|19,042|24,598|22,537|4,615|34,460|55,095|12,928|31,249|4,244|16,008|9,355|3,726|15,927|78,951|38,747|49,202|2,504|85,424|17,619|20,711|5,796|5,253|10,113|43,755|17,797|85,424|15,637|17,189
26.03.2001|19,076|24,595|22,454|4,608|34,400|54,988|12,904|31,303|4,254|16,002|9,341|3,728|15,908|78,863|38,526|48,759|2,500|85,275|17,588|20,675|5,786|5,244|10,095|43,679|17,766|85,275|15,610|17,159
27.03.2001|18,958|24,637|22,406|4,603|34,340|55,173|12,880|31,284|4,245|15,734|9,359|3,758|15,889|78,753|38,483|48,834|2,496|85,127|17,558|20,639|5,776|5,235|10,078|43,603|17,735|85,127|15,583|17,129
28.03.2001|19,003|24,460|22,244|4,578|34,165|54,665|12,813|31,095|4,223|15,645|9,297|3,741|15,806|78,482|38,139|48,390|2,483|84,693|17,468|20,534|5,746|5,208|10,026|43,381|17,645|84,693|15,503|17,041
29.03.2001|19,228|24,700|22,516|4,618|34,465|55,467|12,922|31,921|4,263|15,933|9,409|3,772|15,940|78,998|38,786|49,275|2,505|85,437|17,622|20,714|5,797|5,254|10,114|43,762|17,800|85,437|15,640|17,191
30.03.2001|19,188|24,770|22,538|4,620|34,470|55,908|12,925|31,482|4,267|15,985|9,503|3,736|15,946|79,023|38,837|49,247|2,505|85,449|17,624|20,717|5,797|5,255|10,116|43,768|17,802|85,449|15,642|17,194
02.04.2001|19,115|24,960|22,656|4,632|34,585|55,957|12,965|31,288|4,297|15,757|9,603|3,779|15,987|79,180|39,254|49,776|2,513|85,734|17,683|20,786|5,817|5,272|10,150|43,914|17,862|85,734|15,694|17,251
03.04.2001|19,001|24,907|22,605|4,624|34,500|55,777|12,933|31,183|4,289|15,624|9,584|3,781|15,953|79,110|39,336|49,589|2,507|85,523|17,640|20,735|5,802|5,259|10,125|43,806|17,818|85,523|15,655|17,209
04.04.2001|18,858|24,756|22,647|4,637|34,610|55,705|12,971|31,062|4,271|15,687|9,602|3,759|16,003|79,481|39,105|49,157|2,515|85,796|17,696|20,801|5,821|5,276|10,157|43,946|17,875|85,796|15,705|17,263
05.04.2001|18,734|24,526|22,730|4,642|34,650|55,457|12,989|30,740|4,245|15,574|9,545|3,756|16,028|79,518|38,663|48,724|2,518|85,895|17,716|20,825|5,828|5,282|10,169|43,996|17,895|85,895|15,723|17,283
06.04.2001|18,867|24,422|22,634|4,637|34,615|55,148|12,973|31,073|4,241|15,537|9,543|3,768|16,020|79,384|38,476|48,766|2,516|85,808|17,698|20,804|5,822|5,277|10,158|43,952|17,877|85,808|15,708|17,266
09.04.2001|18,974|24,482|22,659|4,643|34,645|55,047|12,981|30,862|4,257|15,551|9,582|3,796|16,032|79,566|38,484|48,927|2,518|85,883|17,714|20,822|5,827|5,282|10,167|43,990|17,893|85,883|15,721|17,281
10.04.2001|19,043|24,548|22,649|4,643|34,650|55,442|12,983|30,606|4,258|15,582|9,588|3,810|16,027|79,564|38,366|48,662|2,518|85,895|17,716|20,825|5,828|5,282|10,169|43,996|17,895|85,895|15,723|17,283
11.04.2001|19,178|24,821|22,769|4,662|34,790|56,030|13,036|31,168|4,280|15,583|9,658|3,815|16,084|80,134|38,787|49,283|2,528|86,242|17,788|20,909|5,851|5,304|10,210|44,174|17,968|86,242|15,787|17,353
12.04.2001|19,660|25,108|22,771|4,659|34,770|56,141|13,029|31,497|4,294|15,835|9,688|3,862|16,077|80,050|39,065|49,582|2,527|86,193|17,778|20,897|5,848|5,301|10,204|44,149|17,957|86,193|15,778|17,343
13.04.2001|19,644|24,882|22,684|4,620|34,470|55,699|12,909|31,501|4,272|15,754|9,662|3,830|15,930|79,556|38,818|49,140|2,505|85,449|17,624|20,717|5,797|5,255|10,116|43,768|17,802|85,449|15,642|17,194
17.04.2001|19,679|24,752|22,648|4,600|34,455|55,588|12,904|31,098|4,246|15,815|9,646|3,814|15,918|79,481|38,681|48,956|2,504|85,412|17,617|20,708|5,795|5,253|10,112|43,749|17,795|85,412|15,635|17,186
18.04.2001|19,889|25,040|22,624|4,614|34,445|56,166|12,900|31,637|4,265|15,922|9,695|3,808|15,910|79,509|39,078|49,408|2,503|85,387|17,611|20,702|5,793|5,251|10,109|43,736|17,789|85,387|15,630|17,181
19.04.2001|19,540|24,904|22,497|4,606|34,380|55,707|12,875|31,716|4,275|15,755|9,701|3,807|15,881|79,322|39,022|49,238|2,498|85,226|17,578|20,663|5,782|5,241|10,090|43,654|17,756|85,226|15,601|17,149
20.04.2001|19,507|24,828|22,389|4,590|34,250|55,428|12,828|31,819|4,253|15,680|9,676|3,793|15,827|79,195|38,777|48,946|2,489|84,904|17,512|20,585|5,760|5,221|10,051|43,489|17,689|84,904|15,542|17,084
23.04.2001|19,659|24,759|22,530|4,621|34,500|55,423|12,914|31,420|4,246|15,782|9,611|3,794|15,935|79,471|38,310|48,543|2,507|85,523|17,640|20,735|5,802|5,259|10,125|43,806|17,818|85,523|15,655|17,209
24.04.2001|19,350|24,654|22,510|4,612|34,440|55,042|12,893|31,242|4,232|15,627|9,436|3,783|15,902|79,406|38,184|48,662|2,503|85,375|17,609|20,699|5,792|5,250|10,107|43,730|17,787|85,375|15,628|17,179
25.04.2001|19,325|24,776|22,572|4,619|34,465|55,267|12,897|31,578|4,241|15,691|9,473|3,770|15,925|79,426|38,416|48,959|2,505|85,437|17,622|20,714|5,797|5,254|10,114|43,762|17,800|85,437|15,640|17,191
26.04.2001|19,421|24,994|22,515|4,619|34,480|55,393|12,907|31,584|4,230|15,795|9,597|3,765|15,925|79,391|38,614|49,160|2,506|85,474|17,629|20,723|5,799|5,256|10,119|43,781|17,807|85,474|15,646|17,199
27.04.2001|19,478|24,981|22,605|4,643|34,650|55,641|12,970|31,513|4,246|15,801|9,636|3,787|15,993|79,756|38,665|49,128|2,518|85,895|17,716|20,825|5,828|5,282|10,169|43,996|17,895|85,895|15,723|17,283
30.04.2001|19,659|24,912|22,540|4,641|34,650|55,391|12,963|31,050|4,247|15,885|9,688|3,796|15,992|79,728|38,438|48,904|2,518|85,895|17,716|20,825|5,828|5,282|10,169|43,996|17,895|85,895|15,723|17,283
02.05.2001|19,768|25,179|22,472|4,629|34,545|55,718|12,925|31,482|4,268|15,986|9,764|3,794|15,995|79,473|38,826|49,407|2,510|85,635|17,663|20,762|5,810|5,266|10,138|43,863|17,841|85,635|15,676|17,231
03.05.2001|20,207|25,408|22,442|4,636|34,600|55,573|12,945|31,884|4,271|16,363|9,850|3,793|15,969|79,684|38,863|49,194|2,514|85,771|17,691|20,795|5,819|5,275|10,154|43,933|17,869|85,771|15,701|17,258
04.05.2001|20,240|25,285|22,460|4,640|34,645|55,626|12,961|31,902|4,286|16,416|9,820|3,801|16,000|79,822|38,785|49,095|2,518|85,883|17,714|20,822|5,827|5,282|10,167|43,990|17,893|85,883|15,721|17,281
07.05.2001|20,157|25,299|22,459|4,639|34,630|55,638|13,234|32,046|4,281|16,413|9,818|3,782|16,016|79,876|38,797|49,242|2,517|85,846|17,706|20,813|5,824|5,279|10,163|43,971|17,885|85,846|15,714|17,273
09.05.2001|20,124|25,321|22,440|4,638|34,625|55,784|13,319|32,018|4,292|16,351|9,830|3,804|15,983|80,081|38,824|49,342|2,516|85,833|17,703|20,810|5,824|5,279|10,161|43,965|17,882|85,833|15,712|17,271
10.05.2001|20,314|25,290|22,393|4,616|34,455|55,606|13,338|32,116|4,285|16,490|9,866|3,779|15,851|79,637|39,016|49,484|2,504|85,412|17,617|20,708|5,795|5,253|10,112|43,749|17,795|85,412|15,635|17,186
11.05.2001|20,383|25,167|22,329|4,608|34,400|55,143|13,276|31,693|4,266|16,517|9,776|3,791|15,814|79,548|38,776|49,064|2,500|85,275|17,588|20,675|5,786|5,244|10,095|43,679|17,766|85,275|15,610|17,159
14.05.2001|20,492|25,388|22,351|4,604|34,360|55,420|13,356|31,982|4,279|16,632|9,855|3,812|15,797|79,390|39,148|49,588|2,497|85,176|17,568|20,651|5,779|5,238|10,084|43,628|17,745|85,176|15,592|17,139
15.05.2001|20,278|25,344|22,401|4,604|34,350|55,626|13,333|31,973|4,299|16,443|9,755|3,830|15,798|79,403|39,286|49,556|2,496|85,151|17,563|20,645|5,777|5,237|10,081|43,616|17,740|85,151|15,587|17,134
16.05.2001|20,341|25,269|22,461|4,610|34,380|55,727|13,342|31,815|4,290|16,386|9,783|3,813|15,816|79,579|39,280|49,491|2,498|85,226|17,578|20,663|5,782|5,241|10,090|43,654|17,756|85,226|15,601|17,149
17.05.2001|20,330|25,140|22,399|4,603|34,340|55,458|13,296|31,466|4,276|16,384|9,772|3,799|15,785|79,564|38,884|49,005|2,496|85,127|17,558|20,639|5,776|5,235|10,078|43,603|17,735|85,127|15,583|17,129
18.05.2001|20,380|25,233|22,387|4,596|34,300|55,525|13,303|31,493|4,283|16,472|9,788|3,793|15,767|79,346|38,816|49,038|2,493|85,027|17,537|20,615|5,769|5,229|10,066|43,552|17,714|85,027|15,565|17,109
21.05.2001|20,564|25,409|22,366|4,598|34,295|55,780|13,296|31,665|4,297|16,625|9,820|3,802|15,773|79,253|39,031|49,351|2,492|85,015|17,535|20,612|5,768|5,228|10,065|43,546|17,712|85,015|15,562|17,106
22.05.2001|20,672|25,557|22,425|4,603|34,350|56,304|13,288|31,826|4,318|16,725|9,852|3,826|15,793|79,413|39,192|49,441|2,496|85,151|17,563|20,645|5,777|5,237|10,081|43,616|17,740|85,151|15,587|17,134
23.05.2001|20,706|25,591|22,354|4,593|34,260|56,483|13,237|31,950|4,323|16,759|9,867|3,821|15,758|79,305|39,354|49,636|2,490|84,928|17,517|20,591|5,762|5,223|10,054|43,501|17,694|84,928|15,547|17,089
24.05.2001|20,682|25,843|22,400|4,590|34,225|56,699|13,300|32,981|4,313|16,818|9,960|3,790|15,735|79,239|39,915|50,274|2,487|84,842|17,499|20,570|5,756|5,218|10,044|43,457|17,676|84,842|15,531|17,071
25.05.2001|20,518|25,748|22,477|4,597|34,275|56,528|13,346|33,350|4,313|16,717|9,989|3,798|15,759|79,774|39,922|50,148|2,491|84,966|17,525|20,600|5,765|5,225|10,059|43,520|17,702|84,966|15,553|17,096
28.05.2001|20,842|25,930|22,462|4,594|34,265|56,700|13,385|33,273|4,335|16,991|10,019|3,793|15,746|79,927|40,069|50,407|2,490|84,941|17,519|20,594|5,763|5,224|10,056|43,508|17,696|84,941|15,549|17,091
29.05.2001|20,796|25,877|22,462|4,599|34,320|56,682|13,443|32,962|4,336|16,953|9,939|3,784|15,773|80,056|39,919|50,134|2,494|85,077|17,548|20,627|5,772|5,232|10,072|43,577|17,725|85,077|15,574|17,119
30.05.2001|20,694|25,924|22,444|4,595|34,270|56,767|13,479|33,224|4,338|16,907|9,915|3,781|15,750|79,809|40,030|50,274|2,490|84,953|17,522|20,597|5,764|5,224|10,057|43,514|17,699|84,953|15,551|17,094
31.05.2001|20,491|25,933|22,394|4,578|34,135|56,743|13,467|33,268|4,315|16,673|9,926|3,767|15,707|79,523|39,940|50,152|2,481|84,618|17,453|20,516|5,741|5,204|10,018|43,343|17,629|84,618|15,490|17,026
01.06.2001|20,414|25,994|22,431|4,577|34,120|57,013|13,482|33,824|4,302|16,526|10,037|3,738|15,676|79,668|40,205|50,491|2,480|84,581|17,445|20,507|5,739|5,202|10,013|43,323|17,622|84,581|15,483|17,019
04.06.2001|20,326|26,220|22,373|4,562|34,025|57,050|13,393|33,890|4,282|16,463|10,097|3,712|15,623|79,252|40,197|50,417|2,473|84,346|17,397|20,449|5,723|5,187|9,985|43,203|17,572|84,346|15,440|16,972
05.06.2001|20,405|26,068|22,349|4,560|34,000|56,631|13,409|33,360|4,252|16,468|10,045|3,684|15,616|79,236|39,927|50,083|2,471|84,284|17,384|20,434|5,718|5,183|9,978|43,171|17,560|84,284|15,429|16,959
06.06.2001|20,435|26,205|22,460|4,561|34,000|56,736|13,439|33,676|4,271|16,520|10,125|3,673|15,615|79,280|40,287|50,575|2,471|84,284|17,384|20,434|5,718|5,183|9,978|43,171|17,560|84,284|15,429|16,959
07.06.2001|20,549|26,108|22,490|4,575|34,115|55,981|13,595|33,171|4,277|16,583|10,053|3,687|15,681|79,536|39,959|49,972|2,479|84,569|17,443|20,504|5,738|5,201|10,012|43,317|17,619|84,569|15,481|17,016
08.06.2001|20,690|26,389|22,392|4,573|34,100|55,853|13,665|33,529|4,286|16,529|10,053|3,664|15,666|79,202|40,193|50,337|2,478|84,532|17,435|20,495|5,735|5,199|10,007|43,298|17,611|84,532|15,474|17,009
11.06.2001|20,908|26,349|22,336|4,567|34,050|55,213|13,616|33,179|4,283|16,745|10,053|3,654|15,651|79,163|40,035|50,004|2,475|84,408|17,409|20,464|5,727|5,191|9,993|43,235|17,585|84,408|15,451|16,984
12.06.2001|21,098|26,409|22,395|4,573|34,085|55,625|13,629|33,042|4,289|16,852|10,114|3,669|15,656|79,227|40,138|50,100|2,477|84,495|17,427|20,485|5,733|5,196|10,003|43,279|17,603|84,495|15,467|17,002
13.06.2001|20,897|26,292|22,288|4,550|33,920|55,165|13,621|32,876|4,264|16,731|10,103|3,653|15,576|78,884|40,059|49,967|2,465|84,085|17,343|20,386|5,705|5,171|9,955|43,070|17,518|84,085|15,392|16,919
14.06.2001|20,945|26,099|22,277|4,559|33,990|54,722|13,717|32,585|4,243|16,710|10,086|3,667|15,601|78,953|39,785|49,557|2,470|84,259|17,379|20,428|5,717|5,182|9,975|43,158|17,554|84,259|15,424|16,954
15.06.2001|20,810|26,118|22,186|4,542|33,875|55,249|13,711|32,508|4,257|16,529|10,034|3,662|15,547|78,750|39,710|49,584|2,462|83,974|17,320|20,359|5,697|5,164|9,941|43,012|17,495|83,974|15,372|16,897
18.06.2001|20,744|25,925|22,288|4,559|33,995|55,273|13,783|32,457|4,263|16,472|9,994|3,707|15,610|79,151|39,403|49,206|2,471|84,271|17,381|20,431|5,718|5,183|9,977|43,165|17,557|84,271|15,426|16,957
19.06.2001|20,773|25,846|22,212|4,558|33,985|55,534|13,837|31,985|4,274|16,419|9,968|3,725|15,592|79,219|39,474|49,658|2,470|84,247|17,376|20,425|5,716|5,181|9,974|43,152|17,552|84,247|15,422|16,952
20.06.2001|20,638|25,800|22,194|4,549|33,915|55,338|13,777|32,175|4,290|16,410|9,974|3,753|15,558|78,996|39,556|49,489|2,465|84,073|17,340|20,383|5,704|5,170|9,953|43,063|17,516|84,073|15,390|16,917
21.06.2001|20,599|25,855|22,219|4,551|33,930|55,538|13,751|32,326|4,323|16,388|9,950|3,717|15,566|79,072|39,747|49,685|2,466|84,110|17,348|20,392|5,707|5,173|9,957|43,082|17,523|84,110|15,397|16,924
22.06.2001|20,624|25,900|22,304|4,562|34,025|55,681|13,854|31,969|4,303|16,445|9,941|3,716|15,604|79,275|39,649|49,467|2,473|84,346|17,397|20,449|5,723|5,187|9,985|43,203|17,572|84,346|15,440|16,972
25.06.2001|20,565|26,155|22,359|4,557|33,965|56,350|13,928|32,072|4,324|16,452|10,028|3,710|15,576|79,495|39,821|49,746|2,468|84,197|17,366|20,413|5,713|5,178|9,968|43,127|17,541|84,197|15,413|16,942
26.06.2001|20,342|25,872|22,308|4,547|33,890|55,745|13,890|31,713|4,268|16,219|9,951|3,705|15,545|79,380|39,343|49,130|2,463|84,011|17,328|20,368|5,700|5,166|9,946|43,031|17,503|84,011|15,379|16,904
27.06.2001|20,382|25,852|22,250|4,542|33,845|55,437|13,905|31,774|4,260|16,355|9,925|3,689|15,523|79,715|39,229|49,140|2,460|83,900|17,305|20,341|5,692|5,160|9,933|42,974|17,479|83,900|15,358|16,882
28.06.2001|20,452|25,938|22,247|4,550|33,880|55,646|13,935|31,537|4,282|16,391|9,913|3,672|15,557|80,137|39,222|49,126|2,462|83,986|17,323|20,362|5,698|5,165|9,943|43,019|17,498|83,986|15,374|16,899
29.06.2001|20,329|25,954|22,224|4,533|33,765|55,640|13,944|31,585|4,273|16,356|9,953|3,672|15,480|79,898|39,378|49,330|2,454|83,701|17,264|20,293|5,679|5,147|9,909|42,873|17,438|83,701|15,322|16,842
02.07.2001|20,208|26,209|22,209|4,539|33,785|56,043|13,845|32,092|4,288|16,100|10,016|3,672|15,474|80,144|39,885|49,756|2,455|83,751|17,274|20,305|5,682|5,150|9,915|42,898|17,448|83,751|15,331|16,852
03.07.2001|20,356|26,393|22,219|4,539|33,810|56,446|13,881|32,130|4,251|16,169|9,979|3,661|15,478|79,990|39,972|49,791|2,457|83,813|17,287|20,320|5,686|5,154|9,922|42,930|17,461|83,813|15,342|16,864
04.07.2001|20,470|26,356|22,198|4,537|33,770|56,346|13,923|32,204|4,248|16,262|10,012|3,656|15,459|80,162|39,891|49,698|2,454|83,714|17,266|20,296|5,680|5,148|9,910|42,879|17,441|83,714|15,324|16,844
09.07.2001|20,703|26,480|22,206|4,534|33,765|56,115|13,969|31,983|4,259|16,225|9,989|3,673|15,478|80,335|39,933|49,734|2,454|83,701|17,264|20,293|5,679|5,147|9,909|42,873|17,438|83,701|15,322|16,842
10.07.2001|20,327|26,449|22,376|4,566|33,995|56,581|13,517|32,020|4,296|16,245|9,443|3,652|15,542|80,021|40,200|49,814|2,471|84,271|17,381|20,431|5,718|5,183|9,977|43,165|17,557|84,271|15,426|16,957
11.07.2001|20,273|26,047|22,247|4,556|33,915|56,008|13,485|31,600|4,280|16,140|9,188|3,648|15,515|79,682|39,646|49,275|2,465|84,073|17,340|20,383|5,704|5,170|9,953|43,063|17,516|84,073|15,390|16,917
12.07.2001|20,260|26,062|22,406|4,575|34,050|56,051|13,213|31,753|4,263|16,153|8,767|3,653|15,548|79,548|39,582|49,346|2,475|84,408|17,409|20,464|5,727|5,191|9,993|43,235|17,585|84,408|15,451|16,984
13.07.2001|20,030|25,981|22,342|4,553|33,885|55,804|13,372|31,909|4,256|16,065|9,248|3,648|15,473|79,375|39,676|49,657|2,463|83,999|17,325|20,365|5,699|5,166|9,944|43,025|17,500|83,999|15,376|16,902
16.07.2001|20,039|25,788|22,332|4,539|33,775|55,462|13,168|31,884|4,246|16,102|9,299|3,655|15,422|79,326|39,568|49,389|2,455|83,726|17,269|20,299|5,681|5,149|9,912|42,885|17,443|83,726|15,326|16,847
17.07.2001|20,085|25,644|22,345|4,541|33,790|55,296|13,156|31,605|4,240|16,053|9,390|3,673|15,440|79,282|39,472|49,284|2,456|83,763|17,277|20,308|5,683|5,151|9,916|42,904|17,451|83,763|15,333|16,854
18.07.2001|20,067|25,825|22,334|4,536|33,770|55,333|13,372|31,617|4,234|16,104|9,417|3,674|15,432|79,268|39,685|49,509|2,454|83,714|17,266|20,296|5,680|5,148|9,910|42,879|17,441|83,714|15,324|16,844
19.07.2001|20,087|25,694|22,482|4,548|33,865|55,403|13,586|31,505|4,240|16,092|9,434|3,678|15,479|79,627|39,490|49,170|2,461|83,949|17,315|20,353|5,696|5,163|9,938|43,000|17,490|83,949|15,367|16,892
20.07.2001|19,979|25,036|22,497|4,551|33,895|54,911|13,564|31,303|4,227|16,042|9,116|3,670|15,481|79,315|38,618|48,325|2,463|84,024|17,330|20,371|5,701|5,167|9,947|43,038|17,505|84,024|15,381|16,907
23.07.2001|19,895|25,096|22,482|4,547|33,880|55,302|13,602|31,359|4,232|16,013|9,174|3,660|15,467|79,267|38,702|48,713|2,462|83,986|17,323|20,362|5,698|5,165|9,943|43,019|17,498|83,986|15,374|16,899
24.07.2001|19,729|25,186|22,452|4,539|33,798|55,384|13,638|31,436|4,228|15,937|9,264|3,639|15,437|79,162|38,880|49,003|2,456|83,783|17,281|20,313|5,684|5,152|9,919|42,915|17,455|83,783|15,337|16,858
25.07.2001|19,716|25,241|22,468|4,547|33,860|55,122|13,702|31,330|4,233|15,931|9,256|3,639|15,478|79,260|38,899|48,896|2,461|83,937|17,312|20,350|5,695|5,162|9,937|42,993|17,487|83,937|15,365|16,889
26.07.2001|19,650|25,149|22,485|4,550|33,860|55,011|13,766|31,104|4,223|15,947|9,214|3,626|15,456|79,316|38,677|48,618|2,461|83,937|17,312|20,350|5,695|5,162|9,937|42,993|17,487|83,937|15,365|16,889
27.07.2001|19,645|25,056|22,420|4,551|33,890|55,104|13,692|31,166|4,230|15,922|9,194|3,638|15,476|78,888|38,546|48,541|2,463|84,011|17,328|20,368|5,700|5,166|9,946|43,031|17,503|84,011|15,379|16,904
30.07.2001|19,596|25,252|22,465|4,550|33,875|55,046|13,675|31,184|4,243|15,919|9,202|3,647|15,457|78,428|38,648|48,756|2,462|83,974|17,320|20,359|5,697|5,164|9,941|43,012|17,495|83,974|15,372|16,897
31.07.2001|19,564|25,277|22,413|4,549|33,875|55,041|13,718|30,953|4,243|15,952|9,172|3,659|15,447|78,311|38,736|48,815|2,462|83,974|17,320|20,359|5,697|5,164|9,941|43,012|17,495|83,974|15,372|16,897
01.08.2001|19,618|25,373|22,478|4,561|33,970|55,329|13,718|31,090|4,253|15,983|9,143|3,670|15,506|78,949|38,790|48,779|2,469|84,209|17,369|20,416|5,713|5,179|9,969|43,133|17,544|84,209|15,415|16,944
02.08.2001|19,751|25,131|22,473|4,561|33,975|55,243|13,666|30,951|4,246|15,977|9,092|3,653|15,499|78,500|38,588|48,573|2,469|84,222|17,371|20,419|5,714|5,179|9,971|43,139|17,547|84,222|15,417|16,947
03.08.2001|19,985|25,075|22,499|4,562|33,985|55,226|13,679|31,011|4,251|16,077|9,056|3,682|15,506|78,592|38,525|48,596|2,470|84,247|17,376|20,425|5,716|5,181|9,974|43,152|17,552|84,247|15,422|16,952
06.08.2001|19,853|25,087|22,502|4,554|33,925|55,085|13,644|31,102|4,249|16,080|9,071|3,694|15,480|78,983|38,496|48,608|2,465|84,098|17,346|20,389|5,706|5,172|9,956|43,076|17,521|84,098|15,394|16,922
07.08.2001|19,901|25,163|22,482|4,553|33,900|54,892|13,723|31,069|4,245|16,085|9,097|3,698|15,459|78,958|38,490|48,588|2,464|84,036|17,333|20,374|5,702|5,168|9,949|43,044|17,508|84,036|15,383|16,909
08.08.2001|19,953|25,338|22,511|4,554|33,910|54,747|13,729|31,206|4,257|16,211|9,130|3,691|15,463|78,851|38,699|48,828|2,464|84,061|17,338|20,380|5,703|5,170|9,952|43,057|17,513|84,061|15,388|16,914
09.08.2001|19,916|25,174|22,464|4,543|33,815|54,732|13,699|31,321|4,250|16,252|9,164|3,698|15,418|78,915|38,650|48,649|2,457|83,825|17,289|20,323|5,687|5,155|9,924|42,936|17,464|83,825|15,345|16,867
10.08.2001|19,766|24,936|22,484|4,549|33,855|54,364|13,687|30,982|4,243|16,269|9,081|3,694|15,436|79,161|38,259|48,156|2,460|83,924|17,310|20,347|5,694|5,161|9,935|42,987|17,485|83,924|15,363|16,887
13.08.2001|19,554|24,609|22,463|4,555|33,905|54,079|13,735|31,011|4,226|16,152|9,000|3,695|15,450|79,237|37,906|47,936|2,464|84,048|17,335|20,377|5,702|5,169|9,950|43,050|17,510|84,048|15,385|16,912
14.08.2001|19,566|24,589|22,408|4,559|33,925|53,757|13,752|31,038|4,209|16,208|8,923|3,689|15,456|78,978|37,812|48,010|2,465|84,098|17,346|20,389|5,706|5,172|9,956|43,076|17,521|84,098|15,394|16,922
15.08.2001|19,554|24,588|22,357|4,553|33,890|53,745|13,726|30,844|4,193|16,181|8,885|3,676|15,435|78,932|37,877|48,206|2,463|84,011|17,328|20,368|5,700|5,166|9,946|43,031|17,503|84,011|15,379|16,904
16.08.2001|19,536|24,294|22,314|4,552|33,880|53,425|13,553|30,891|4,182|16,149|8,768|3,666|15,427|78,869|37,321|47,375|2,462|83,986|17,323|20,362|5,698|5,165|9,943|43,019|17,498|83,986|15,374|16,899
17.08.2001|19,582|24,238|22,356|4,564|33,970|53,707|13,244|31,010|4,186|16,121|8,682|3,662|15,470|78,830|37,016|47,395|2,469|84,209|17,369|20,416|5,713|5,179|9,969|43,133|17,544|84,209|15,415|16,944
20.08.2001|19,756|24,268|22,413|4,573|34,045|53,813|13,268|30,966|4,195|16,240|8,713|3,667|15,499|78,693|37,273|47,909|2,474|84,395|17,407|20,461|5,726|5,190|9,991|43,228|17,583|84,395|15,449|16,982
21.08.2001|19,865|24,073|22,419|4,572|34,040|53,752|13,286|30,902|4,199|16,335|8,639|3,613|15,519|78,891|37,200|47,739|2,474|84,383|17,404|20,458|5,725|5,189|9,990|43,222|17,580|84,383|15,447|16,979
22.08.2001|19,917|24,164|22,466|4,577|34,080|53,979|13,268|31,025|4,200|16,280|8,753|3,622|15,522|78,962|37,309|47,868|2,477|84,482|17,425|20,482|5,732|5,195|10,001|43,273|17,601|84,482|15,465|16,999
23.08.2001|19,989|23,962|22,559|4,604|34,290|54,125|13,332|31,038|4,227|16,451|8,690|3,611|15,625|79,278|37,122|47,653|2,492|85,003|17,532|20,609|5,767|5,227|10,063|43,539|17,709|85,003|15,560|17,104
24.08.2001|20,100|24,458|22,614|4,614|34,365|54,498|13,562|31,355|4,244|16,604|8,928|3,647|15,657|79,360|37,737|48,630|2,497|85,189|17,571|20,654|5,780|5,239|10,085|43,635|17,748|85,189|15,594|17,141
27.08.2001|19,974|24,333|22,532|4,599|34,240|54,141|13,662|31,275|4,223|16,500|8,891|3,633|15,591|79,140|37,478|48,024|2,488|84,879|17,507|20,579|5,759|5,220|10,048|43,476|17,683|84,879|15,537|17,079
28.08.2001|19,906|24,350|22,505|4,593|34,190|54,118|13,499|31,201|4,230|16,466|8,855|3,652|15,567|78,882|37,512|48,073|2,485|84,755|17,481|20,549|5,750|5,212|10,034|43,412|17,658|84,755|15,515|17,054
29.08.2001|19,888|24,505|22,554|4,597|34,220|54,392|13,480|31,414|4,241|16,507|8,901|3,653|15,573|78,921|37,821|48,464|2,487|84,829|17,496|20,567|5,755|5,217|10,043|43,450|17,673|84,829|15,528|17,069
30.08.2001|19,883|24,315|22,531|4,591|34,175|54,446|13,459|31,238|4,240|16,541|8,876|3,629|15,554|78,816|37,462|47,881|2,484|84,718|17,473|20,540|5,748|5,210|10,029|43,393|17,650|84,718|15,508|17,046
31.08.2001|19,960|24,360|22,563|4,599|34,235|54,683|13,573|31,448|4,248|16,558|8,902|3,617|15,579|78,910|37,671|48,390|2,488|84,866|17,504|20,576|5,758|5,219|10,047|43,469|17,681|84,866|15,535|17,076
03.09.2001|19,935|24,261|22,623|4,606|34,335|54,629|13,514|31,535|4,248|16,540|8,845|3,601|15,604|79,089|37,433|48,010|2,495|85,114|17,555|20,636|5,775|5,234|10,076|43,596|17,733|85,114|15,581|17,126
04.09.2001|19,842|24,270|22,557|4,595|34,200|54,722|13,574|31,682|4,260|16,481|8,912|3,604|15,558|78,811|37,640|48,489|2,485|84,780|17,486|20,555|5,752|5,214|10,037|43,425|17,663|84,780|15,519|17,059
05.09.2001|19,891|24,599|22,537|4,588|34,155|54,982|13,553|31,868|4,283|16,478|8,944|3,583|15,549|78,830|38,051|49,019|2,482|84,668|17,463|20,528|5,744|5,207|10,023|43,368|17,640|84,668|15,499|17,036
06.09.2001|19,907|24,603|22,601|4,584|34,125|55,449|13,561|32,071|4,300|16,496|9,054|3,576|15,536|78,866|38,449|49,130|2,480|84,594|17,448|20,510|5,739|5,202|10,015|43,330|17,624|84,594|15,485|17,021
07.09.2001|20,026|24,701|22,591|4,586|34,130|55,792|13,534|31,722|4,302|16,638|9,043|3,613|15,532|78,886|38,456|48,958|2,480|84,606|17,450|20,513|5,740|5,203|10,016|43,336|17,627|84,606|15,488|17,024
10.09.2001|19,855|24,512|22,589|4,587|34,140|55,534|13,494|31,451|4,282|16,518|9,023|3,593|15,544|78,973|38,179|48,524|2,481|84,631|17,456|20,519|5,742|5,205|10,019|43,349|17,632|84,631|15,492|17,029
11.09.2001|19,398|24,111|22,530|4,590|34,155|55,467|13,496|31,484|4,276|16,268|8,991|3,587|15,550|79,021|37,801|48,188|2,482|84,668|17,463|20,528|5,744|5,207|10,023|43,368|17,640|84,668|15,499|17,036
12.09.2001|19,542|24,325|22,501|4,581|34,095|55,332|13,539|31,201|4,284|16,214|9,015|3,584|15,515|78,806|38,008|48,704|2,478|84,519|17,432|20,492|5,734|5,198|10,006|43,292|17,609|84,519|15,472|17,007
13.09.2001|19,484|24,114|22,690|4,588|34,160|55,190|13,366|31,512|4,286|16,144|8,834|3,561|15,547|78,755|37,698|48,041|2,483|84,680|17,466|20,531|5,745|5,208|10,025|43,374|17,642|84,680|15,501|17,039
14.09.2001|19,424|24,094|22,712|4,588|34,150|55,215|13,419|31,651|4,276|16,007|8,890|3,557|15,541|78,767|37,654|47,984|2,482|84,656|17,461|20,525|5,744|5,206|10,022|43,362|17,637|84,656|15,497|17,034
17.09.2001|19,275|23,867|22,741|4,588|34,145|55,048|13,374|31,407|4,267|15,811|8,825|3,563|15,538|78,456|37,339|47,918|2,481|84,643|17,458|20,522|5,743|5,205|10,021|43,355|17,634|84,643|15,494|17,031
18.09.2001|18,625|23,454|23,010|4,603|34,265|54,298|13,251|31,402|4,263|15,200|8,664|3,535|15,592|78,186|36,822|47,492|2,490|84,941|17,519|20,594|5,763|5,224|10,056|43,508|17,696|84,941|15,549|17,091
19.09.2001|18,560|23,718|23,143|4,614|34,345|54,630|13,378|31,606|4,285|15,323|8,798|3,529|15,618|78,341|37,265|48,330|2,496|85,139|17,560|20,642|5,776|5,236|10,079|43,609|17,738|85,139|15,585|17,131
20.09.2001|18,129|23,540|23,133|4,607|34,290|54,240|13,236|31,530|4,289|15,181|8,757|3,528|15,606|78,361|37,040|47,949|2,492|85,003|17,532|20,609|5,767|5,227|10,063|43,539|17,709|85,003|15,560|17,104
21.09.2001|18,245|23,562|23,190|4,601|34,250|54,245|13,242|31,551|4,321|15,264|8,807|3,509|15,578|78,247|36,967|47,873|2,489|84,904|17,512|20,585|5,760|5,221|10,051|43,489|17,689|84,904|15,542|17,084
24.09.2001|17,960|23,778|23,665|4,606|34,275|54,256|13,277|31,985|4,317|15,046|8,988|3,445|15,576|78,356|37,215|48,177|2,491|84,966|17,525|20,600|5,765|5,225|10,059|43,520|17,702|84,966|15,553|17,096
25.09.2001|18,330|23,869|23,553|4,602|34,220|54,616|13,120|31,958|4,303|15,146|8,958|3,453|15,551|78,044|37,473|48,430|2,487|84,829|17,496|20,567|5,755|5,217|10,043|43,450|17,673|84,829|15,528|17,069
26.09.2001|18,347|23,698|23,408|4,592|34,150|54,369|13,092|31,791|4,244|15,135|8,851|3,476|15,521|77,844|37,215|47,992|2,482|84,656|17,461|20,525|5,744|5,206|10,022|43,362|17,637|84,656|15,497|17,034
27.09.2001|18,353|23,488|23,065|4,570|33,990|54,402|13,181|31,343|4,228|15,121|8,744|3,421|15,448|77,559|36,916|47,664|2,470|84,259|17,379|20,428|5,717|5,182|9,975|43,158|17,554|84,259|15,424|16,954
01.10.2001|17,922|23,377|22,889|4,559|33,905|54,222|13,160|30,950|4,197|14,791|8,786|3,422|15,401|77,687|36,775|47,568|2,464|84,048|17,335|20,377|5,702|5,169|9,950|43,050|17,510|84,048|15,385|16,912
02.10.2001|18,315|23,568|22,899|4,554|33,865|54,794|13,166|31,044|4,193|15,072|8,803|3,492|15,386|77,503|37,200|47,951|2,461|83,949|17,315|20,353|5,696|5,163|9,938|43,000|17,490|83,949|15,367|16,892
03.10.2001|18,142|23,366|22,698|4,522|33,630|54,321|13,023|30,435|4,165|14,880|8,690|3,437|15,273|77,347|36,744|47,253|2,444|83,367|17,195|20,212|5,656|5,127|9,869|42,701|17,368|83,367|15,261|16,775
04.10.2001|18,161|23,295|22,607|4,520|33,615|53,604|13,063|30,211|4,158|14,863|8,700|3,444|15,272|77,240|36,500|46,951|2,443|83,329|17,187|20,203|5,654|5,125|9,865|42,682|17,361|83,329|15,254|16,767
05.10.2001|18,404|23,482|22,664|4,534|33,710|54,190|13,097|30,539|4,180|15,106|8,770|3,477|15,318|77,432|36,811|47,366|2,450|83,565|17,236|20,260|5,670|5,139|9,893|42,803|17,410|83,565|15,297|16,814
08.10.2001|18,432|23,396|22,664|4,530|33,680|54,209|13,127|30,489|4,186|15,134|8,851|3,457|15,297|77,381|36,728|47,216|2,448|83,491|17,220|20,242|5,665|5,134|9,884|42,765|17,394|83,491|15,283|16,800
09.10.2001|18,515|23,388|22,827|4,536|33,720|53,931|13,007|30,523|4,185|15,191|8,774|3,462|15,311|77,153|36,565|47,078|2,451|83,590|17,241|20,266|5,671|5,141|9,896|42,816|17,415|83,590|15,301|16,819
10.10.2001|18,481|23,377|22,711|4,522|33,630|53,660|13,062|30,372|4,189|15,176|8,762|3,477|15,272|76,983|36,485|46,975|2,444|83,367|17,195|20,212|5,656|5,127|9,869|42,701|17,368|83,367|15,261|16,775
11.10.2001|18,483|23,510|22,634|4,513|33,590|53,599|13,101|30,536|4,200|15,218|8,841|3,487|15,251|77,041|36,789|47,413|2,441|83,267|17,174|20,188|5,649|5,121|9,858|42,651|17,348|83,267|15,242|16,755
12.10.2001|18,496|23,558|22,637|4,521|33,620|53,597|13,202|30,607|4,219|15,278|8,962|3,506|15,266|77,180|36,943|47,399|2,443|83,342|17,190|20,206|5,654|5,125|9,866|42,689|17,363|83,342|15,256|16,770
15.10.2001|18,577|23,744|22,612|4,511|33,550|53,686|13,118|30,502|4,220|15,342|8,960|3,516|15,224|77,269|37,117|47,486|2,438|83,168|17,154|20,164|5,643|5,115|9,846|42,600|17,327|83,168|15,224|16,735
16.10.2001|18,911|23,552|22,619|4,498|33,460|53,278|13,109|30,410|4,191|15,497|8,943|3,508|15,183|76,978|36,745|46,941|2,432|82,945|17,108|20,110|5,628|5,101|9,820|42,485|17,281|82,945|15,183|16,690
17.10.2001|18,958|23,671|22,583|4,495|33,430|53,363|13,138|30,458|4,198|15,485|9,040|3,521|15,187|76,744|36,927|47,173|2,429|82,871|17,092|20,092|5,623|5,096|9,811|42,447|17,265|82,871|15,170|16,675
18.10.2001|19,042|23,686|22,535|4,499|33,465|53,548|13,170|30,446|4,202|15,577|9,066|3,546|15,201|76,958|37,039|47,291|2,432|82,958|17,110|20,113|5,628|5,102|9,821|42,492|17,283|82,958|15,186|16,692
19.10.2001|18,893|23,579|22,648|4,502|33,480|53,595|13,159|30,633|4,212|15,462|9,065|3,525|15,203|76,930|37,085|47,343|2,433|82,995|17,118|20,122|5,631|5,104|9,825|42,511|17,291|82,995|15,193|16,700
22.10.2001|18,868|23,621|22,698|4,508|33,525|53,666|13,225|30,756|4,198|15,489|9,081|3,544|15,220|76,716|37,256|47,559|2,436|83,106|17,141|20,149|5,639|5,111|9,839|42,568|17,314|83,106|15,213|16,722
23.10.2001|18,885|23,577|22,607|4,487|33,360|53,226|13,133|30,576|4,176|15,518|9,030|3,516|15,154|76,426|37,164|47,405|2,424|82,697|17,057|20,050|5,611|5,086|9,790|42,358|17,229|82,697|15,138|16,640
24.10.2001|19,073|23,765|22,498|4,480|33,315|53,297|13,249|30,563|4,191|15,637|9,096|3,499|15,122|76,031|37,504|47,739|2,421|82,586|17,034|20,023|5,603|5,079|9,777|42,301|17,206|82,586|15,118|16,617
25.10.2001|18,944|23,702|22,468|4,470|33,245|53,255|13,178|30,444|4,185|15,601|9,057|3,501|15,091|76,246|37,266|47,187|2,416|82,412|16,998|19,981|5,591|5,068|9,756|42,212|17,170|82,412|15,086|16,583
26.10.2001|18,938|23,778|22,536|4,485|33,345|53,360|13,237|30,355|4,197|15,524|9,063|3,529|15,136|76,549|37,439|47,500|2,423|82,660|17,049|20,041|5,608|5,083|9,786|42,339|17,221|82,660|15,131|16,632
29.10.2001|18,945|23,942|22,861|4,530|33,680|54,037|13,280|30,749|4,230|15,563|9,192|3,570|15,286|77,070|37,705|47,782|2,448|83,491|17,220|20,242|5,665|5,134|9,884|42,765|17,394|83,491|15,283|16,800
30.10.2001|18,835|23,672|22,722|4,508|33,530|54,035|13,203|30,518|4,211|15,460|9,135|3,541|15,151|76,812|37,330|47,382|2,437|83,119|17,144|20,152|5,639|5,112|9,840|42,574|17,317|83,119|15,215|16,725
31.10.2001|18,824|23,527|22,808|4,513|33,585|53,947|13,134|30,416|4,218|15,423|9,012|3,503|15,254|76,809|37,080|47,245|2,441|83,255|17,172|20,185|5,649|5,120|9,856|42,644|17,345|83,255|15,240|16,752
01.11.2001|18,776|23,454|22,872|4,515|33,615|54,051|13,166|30,504|4,203|15,374|9,046|3,507|15,269|77,082|37,140|47,497|2,443|83,329|17,187|20,203|5,654|5,125|9,865|42,682|17,361|83,329|15,254|16,767
02.11.2001|18,883|23,268|22,807|4,514|33,615|54,043|13,183|30,383|4,207|15,408|9,057|3,508|15,261|77,207|37,043|47,374|2,443|83,329|17,187|20,203|5,654|5,125|9,865|42,682|17,361|83,329|15,254|16,767
05.11.2001|18,808|23,228|22,760|4,503|33,535|54,311|13,137|30,447|4,211|15,347|9,012|3,519|15,210|77,044|37,057|47,470|2,437|83,131|17,146|20,155|5,640|5,112|9,842|42,581|17,319|83,131|15,218|16,727
06.11.2001|18,936|23,443|22,773|4,497|33,500|54,298|13,190|30,670|4,211|15,498|9,068|3,521|15,204|77,115|37,330|47,766|2,435|83,044|17,128|20,134|5,634|5,107|9,831|42,536|17,301|83,044|15,202|16,710
07.11.2001|19,059|23,375|22,723|4,493|33,465|54,301|13,247|30,671|4,221|15,605|9,103|3,530|15,177|77,127|37,243|47,417|2,432|82,958|17,110|20,113|5,628|5,102|9,821|42,492|17,283|82,958|15,186|16,692
08.11.2001|19,071|23,238|22,725|4,488|33,450|54,282|13,303|30,610|4,205|15,547|9,087|3,530|15,175|77,257|37,012|47,229|2,431|82,920|17,103|20,104|5,626|5,099|9,817|42,473|17,275|82,920|15,179|16,685
09.11.2001|19,131|23,326|22,721|4,480|33,380|54,491|13,330|30,815|4,211|15,617|9,148|3,558|15,145|77,446|37,223|47,498|2,426|82,747|17,067|20,062|5,614|5,089|9,796|42,384|17,239|82,747|15,147|16,650
12.11.2001|19,216|23,433|22,723|4,482|33,390|54,310|13,346|31,126|4,235|15,641|9,220|3,542|15,146|77,579|37,477|47,848|2,427|82,772|17,072|20,068|5,616|5,090|9,799|42,397|17,244|82,772|15,152|16,655
13.11.2001|19,401|23,257|22,738|4,467|33,285|54,290|13,292|30,893|4,220|15,769|9,164|3,540|15,105|77,592|37,292|47,481|2,419|82,511|17,018|20,005|5,598|5,074|9,768|42,263|17,190|82,511|15,104|16,602
14.11.2001|19,527|23,504|22,702|4,469|33,290|54,438|13,339|30,982|4,225|15,884|9,202|3,558|15,111|77,794|37,556|47,855|2,419|82,524|17,021|20,008|5,599|5,075|9,770|42,270|17,193|82,524|15,106|16,605
15.11.2001|19,799|23,797|22,622|4,468|33,255|54,454|13,342|31,040|4,244|15,993|9,203|3,572|15,123|77,834|37,839|48,046|2,417|82,437|17,003|19,987|5,593|5,070|9,759|42,225|17,175|82,437|15,090|16,588
16.11.2001|19,611|23,696|22,596|4,469|33,270|54,196|13,313|30,839|4,216|15,807|9,205|3,579|15,123|77,711|37,702|47,700|2,418|82,474|17,011|19,996|5,596|5,072|9,764|42,244|17,183|82,474|15,097|16,595
19.11.2001|19,601|23,662|22,674|4,473|33,290|53,881|13,231|30,723|4,205|15,716|9,098|3,556|15,162|77,780|37,639|47,652|2,419|82,524|17,021|20,008|5,599|5,075|9,770|42,270|17,193|82,524|15,106|16,605
20.11.2001|19,684|23,779|22,634|4,456|33,165|53,652|13,235|30,521|4,189|15,679|9,138|3,545|15,069|77,484|37,677|47,685|2,410|82,214|16,957|19,933|5,578|5,056|9,733|42,111|17,128|82,214|15,050|16,543
21.11.2001|19,616|23,652|22,758|4,461|33,215|53,320|13,308|30,640|4,197|15,671|9,172|3,549|15,090|77,469|37,640|47,480|2,414|82,338|16,983|19,963|5,586|5,064|9,748|42,174|17,154|82,338|15,072|16,568
22.11.2001|19,603|23,666|22,797|4,462|33,215|53,600|13,298|30,711|4,208|15,615|9,261|3,534|15,089|77,057|37,796|47,677|2,414|82,338|16,983|19,963|5,586|5,064|9,748|42,174|17,154|82,338|15,072|16,568
23.11.2001|19,574|23,647|22,756|4,466|33,245|53,517|13,201|30,589|4,220|15,544|9,240|3,543|15,103|76,827|37,871|47,812|2,416|82,412|16,998|19,981|5,591|5,068|9,756|42,212|17,170|82,412|15,086|16,583
26.11.2001|19,522|23,619|22,715|4,462|33,205|53,212|13,162|30,426|4,196|15,515|9,202|3,545|15,092|76,801|37,763|47,676|2,413|82,313|16,977|19,957|5,585|5,062|9,745|42,162|17,149|82,313|15,068|16,563
27.11.2001|19,447|23,497|22,582|4,449|33,110|53,250|13,151|30,278|4,161|15,498|9,164|3,542|15,051|76,728|37,557|47,415|2,406|82,078|16,929|19,900|5,569|5,048|9,717|42,041|17,100|82,078|15,025|16,515
28.11.2001|19,565|23,593|22,611|4,454|33,140|53,107|13,173|30,311|4,165|15,566|9,216|3,546|15,061|76,602|37,621|47,458|2,408|82,152|16,944|19,918|5,574|5,052|9,726|42,079|17,115|82,152|15,038|16,530
29.11.2001|19,606|23,550|22,748|4,461|33,205|53,141|13,203|30,426|4,179|15,559|9,216|3,525|15,069|76,554|37,505|47,212|2,413|82,313|16,977|19,957|5,585|5,062|9,745|42,162|17,149|82,313|15,068|16,563
30.11.2001|19,533|23,710|22,774|4,475|33,300|53,476|13,286|30,397|4,193|15,562|9,192|3,510|15,140|76,865|37,466|47,310|2,420|82,549|17,026|20,014|5,601|5,077|9,773|42,282|17,198|82,549|15,111|16,610
03.12.2001|19,451|23,691|22,508|4,453|33,140|53,218|13,173|30,177|4,170|15,551|9,156|3,500|15,094|76,290|37,396|47,383|2,408|82,152|16,944|19,918|5,574|5,052|9,726|42,079|17,115|82,152|15,038|16,530
04.12.2001|19,259|23,555|22,474|4,448|33,125|52,735|13,222|29,986|4,146|15,397|9,147|3,455|15,099|76,615|37,069|46,933|2,407|82,115|16,937|19,909|5,571|5,050|9,721|42,060|17,108|82,115|15,031|16,523
05.12.2001|19,122|23,566|22,470|4,445|33,100|52,831|13,237|30,008|4,149|15,336|9,211|3,489|15,066|76,696|37,137|47,052|2,405|82,053|16,924|19,894|5,567|5,046|9,714|42,028|17,095|82,053|15,020|16,510
06.12.2001|19,102|23,521|22,411|4,437|33,025|52,636|13,275|29,826|4,119|15,307|9,176|3,499|15,025|76,429|37,024|46,881|2,400|81,867|16,885|19,848|5,554|5,035|9,692|41,933|17,056|81,867|14,986|16,473
07.12.2001|19,202|23,578|22,367|4,431|32,985|52,618|13,247|29,822|4,132|15,421|9,121|3,523|15,010|76,438|37,156|47,037|2,397|81,768|16,865|19,824|5,548|5,029|9,680|41,882|17,035|81,768|14,968|16,453
10.12.2001|19,151|23,453|22,334|4,429|32,985|52,716|13,245|29,555|4,127|15,410|9,097|3,528|15,008|76,527|36,960|46,662|2,397|81,768|16,865|19,824|5,548|5,029|9,680|41,882|17,035|81,768|14,968|16,453
11.12.2001|19,104|23,527|22,289|4,426|32,955|53,077|13,153|29,404|4,124|15,399|9,078|3,524|14,997|76,065|37,074|46,902|2,395|81,693|16,850|19,806|5,543|5,024|9,671|41,844|17,020|81,693|14,954|16,438
12.12.2001|18,984|23,344|22,213|4,416|32,875|52,852|13,178|29,252|4,100|15,346|9,058|3,514|14,956|76,030|36,841|46,524|2,389|81,495|16,809|19,758|5,529|5,012|9,648|41,743|16,979|81,495|14,918|16,398
13.12.2001|18,991|23,373|22,181|4,394|32,715|52,775|13,250|29,036|4,082|15,352|9,025|3,481|14,871|75,547|36,608|46,271|2,377|81,098|16,727|19,662|5,502|4,987|9,601|41,539|16,896|81,098|14,845|16,318
14.12.2001|18,908|23,196|22,116|4,378|32,605|52,507|13,179|28,706|4,060|15,243|9,014|3,473|14,820|75,387|36,331|46,020|2,369|80,826|16,671|19,596|5,484|4,971|9,569|41,400|16,839|80,826|14,796|16,263
17.12.2001|18,736|23,130|22,130|4,361|32,630|52,495|13,257|28,341|4,061|15,133|9,011|3,461|14,839|75,746|36,191|45,878|2,371|80,888|16,683|19,611|5,488|4,974|9,576|41,432|16,852|80,888|14,807|16,276
18.12.2001|18,450|22,792|21,868|4,330|32,245|51,918|13,095|27,849|4,012|14,880|8,918|3,405|14,658|75,189|35,569|45,145|2,343|79,933|16,487|19,380|5,423|4,916|9,463|40,943|16,653|79,933|14,632|16,084
19.12.2001|18,033|22,245|21,321|4,227|31,455|50,794|12,840|27,206|3,928|14,542|8,804|3,324|14,287|73,576|34,836|44,267|2,286|77,975|16,083|18,905|5,290|4,795|9,231|39,940|16,245|77,975|14,274|15,690
20.12.2001|18,275|22,548|21,676|4,294|31,940|51,545|13,008|27,830|3,999|14,806|8,921|3,372|14,585|74,333|35,536|45,073|2,321|79,177|16,331|19,196|5,372|4,869|9,373|40,555|16,496|79,177|14,494|15,932
21.12.2001|18,299|22,782|21,986|4,330|32,260|51,911|13,074|28,038|4,036|14,831|9,050|3,405|14,755|74,717|35,932|45,467|2,344|79,970|16,494|19,389|5,426|4,918|9,467|40,962|16,661|79,970|14,639|16,091
27.12.2001|18,336|22,871|22,132|4,359|32,430|52,413|13,158|27,919|4,058|14,944|9,117|3,412|14,821|75,203|36,162|45,740|2,357|80,392|16,581|19,491|5,454|4,944|9,517|41,178|16,749|80,392|14,716|16,176
28.12.2001|18,508|22,828|21,725|4,329|32,205|52,850|13,121|27,722|4,038|15,125|9,143|3,404|14,714|75,313|36,468|46,036|2,340|79,834|16,466|19,356|5,416|4,910|9,451|40,892|16,632|79,834|14,614|16,064
31.12.2001|18,470|22,705|21,599|4,302|31,980|52,499|13,019|27,617|4,020|15,035|9,150|3,418|14,619|74,806|36,259|45,485|2,324|79,276|16,351|19,220|5,379|4,875|9,385|40,606|16,516|79,276|14,512|15,952
